miscelaneos/serial_to_parallel/simulation.vcd
$date
	Tue May 15 22:22:48 2018
$end
$version
	Icarus Verilog
$end
$timescale
	100ps
$end
$scope module testbench $end
$var wire 1 ! wRESET $end
$var wire 1 " DATA_IN $end
$var wire 1 # CLK $end
$scope module prob $end
$var reg 1 # CLK $end
$var reg 1 " DATA_IN $end
$var reg 1 ! RESET $end
$upscope $end
$scope module uut_cond $end
$var wire 1 # CLK $end
$var wire 1 " DATA_IN $end
$var wire 1 ! RESET $end
$var reg 8 $ DATA_OUT [7:0] $end
$var reg 1 % Valid $end
$var reg 8 & check [7:0] $end
$var reg 7 ' rBuffer [6:0] $end
$var reg 3 ( rCurrentState [2:0] $end
$var reg 3 ) rNextState [2:0] $end
$upscope $end
$upscope $end
$enddefinitions $end
#0
$dumpvars
bx )
bx (
bx '
bx &
x%
bx $
0#
x"
0!
$end
#10
0%
1#
#20
0#
#30
1#
#40
0#
#50
b0 &
1#
1!
#60
b0x &
0#
#70
b0 &
1#
#80
b0x &
0#
#90
1#
0!
#100
b0xx &
0#
#110
1#
1"
#120
b0xx1 &
0#
#130
1#
#140
b0xx11 &
0#
#150
1#
#160
b0xx111 &
0#
#170
1#
#180
b0xx1111 &
0#
#190
1#
0"
#200
b0xx11110 &
0#
#210
1#
1"
#220
bx111101 &
0#
#230
1#
#240
bx1111011 &
0#
#250
1#
#260
b11110111 &
0#
#270
1#
#280
b11101111 &
0#
#290
1#
0"
#300
b11011110 &
0#
#310
1#
1"
#320
b10111101 &
0#
#330
1#
#340
b1111011 &
0#
#350
1#
#360
b11110111 &
0#
#370
1#
#380
b11101111 &
0#
#390
1#
0"
#400
b11011110 &
0#
#410
1#
#420
b10111100 &
0#
#430
b0 (
1%
1#
#440
b1 )
b0xxxxxx '
0#
#450
b1 (
1#
#460
b10 )
b0xxxxx '
0#
#470
b10 (
1#
1"
#480
b11 )
b1xxxx '
0#
#490
b11 (
1#
#500
b100 )
b11xxx '
0#
#510
b100 (
1#
#520
b101 )
b111xx '
0#
#530
b101 (
1#
#540
b110 )
b1111x '
0#
#550
b110 (
1#
0"
#560
b111 )
b11110 '
0#
#570
b111 (
1#
1"
#580
b0 )
b111101 $
0#
#590
b0 (
1#
0"
#600
b1 )
0#
#610
b1 (
1#
#620
b10 )
0#
#630
b10 (
1#
#640
b11 )
b1110 '
0#
#650
b11 (
1#
#660
b100 )
b110 '
0#
#670
b100 (
1#
1"
#680
b101 )
0#
#690
b101 (
1#
#700
b110 )
0#
#710
b110 (
1#
0"
#720
b111 )
0#
#730
b111 (
1#
#740
b0 )
b1100 $
0#
#750
b0 (
1#
#760
b1 )
0#
#770
b1 (
1#
1"
#780
b10 )
b100110 '
0#
#790
b10 (
1#
0"
#800
b11 )
0#
#810
b11 (
1#
1"
#820
b100 )
b101110 '
0#
#830
b100 (
1#
0"
#840
b101 )
b101010 '
0#
#850
b101 (
1#
1"
#860
b110 )
0#
#870
b110 (
1#
0"
#880
b111 )
0#
#890
b111 (
1#
1"
#900
b0 )
b1010101 $
0#
#910
b0 (
1#
#920
b1 )
b1101010 '
0#
#930
b1 (
1#
#940
b10 )
0#
#950
b10 (
1#
#960
b11 )
b1111010 '
0#
#970
b11 (
1#
#980
b100 )
0#
#990
b100 (
1#
#1000
b101 )
b1111110 '
0#
#1010
b101 (
1#
#1020
b110 )
0#
#1030
b110 (
1#
#1040
b111 )
b1111111 '
0#
#1050
b111 (
1#
#1060
b0 )
b11111111 $
0#
#1070
b0 (
1#
#1080
b1 )
0#
#1090
b1 (
1#
#1100
b10 )
0#
#1110
b10 (
1#
#1120
b11 )
0#
#1130
b11 (
1#
#1140
b100 )
0#
#1150
b100 (
1#
#1160
b101 )
0#
#1170
b101 (
1#
#1180
b110 )
0#
#1190
b110 (
1#
#1200
b111 )
0#
#1210
b111 (
1#
#1220
b0 )
0#
#1230
b0 (
1#
#1240
b1 )
0#
#1250
b1 (
1#
#1260
b10 )
0#
#1270
b10 (
1#
#1280
b11 )
0#
#1290
b11 (
1#
#1300
b100 )
0#
#1310
b100 (
1#
#1320
b101 )
0#
#1330
b101 (
1#
#1340
b110 )
0#
#1350
b110 (
1#
#1360
b111 )
0#
#1370
b111 (
1#
#1380
b0 )
0#
#1390
b0 (
1#
#1400
b1 )
0#
#1410
b1 (
1#
#1420
b10 )
0#
#1430
b10 (
1#
#1440
b11 )
0#
#1450
b11 (
1#
#1460
b100 )
0#
#1470
b100 (
1#
#1480
b101 )
0#
#1490
b101 (
1#
#1500
b110 )
0#
#1510
b110 (
1#
#1520
b111 )
0#
#1530
b111 (
1#
#1540
b0 )
0#
#1550
b0 (
1#
#1560
b1 )
0#
#1570
b1 (
1#
#1580
b10 )
0#
#1590
b10 (
1#
#1600
b11 )
0#
#1610
b11 (
1#
#1620
b100 )
0#
#1630
b100 (
1#
#1640
b101 )
0#
#1650
b101 (
1#
#1660
b110 )
0#
#1670
b110 (
1#
#1680
b111 )
0#
#1690
b111 (
1#
#1700
b0 )
0#
#1710
b0 (
1#
#1720
b1 )
0#
#1730
b1 (
1#
#1740
b10 )
0#
#1750
b10 (
1#
#1760
b11 )
0#
#1770
b11 (
1#
#1780
b100 )
0#
#1790
b100 (
1#
#1800
b101 )
0#
#1810
b101 (
1#
#1820
b110 )
0#
#1830
b110 (
1#
#1840
b111 )
0#
#1850
b111 (
1#
#1860
b0 )
0#
#1870
b0 (
1#
#1880
b1 )
0#
#1890
b1 (
1#
#1900
b10 )
0#
#1910
b10 (
1#
#1920
b11 )
0#
#1930
b11 (
1#
#1940
b100 )
0#
#1950
b100 (
1#
#1960
b101 )
0#
#1970
b101 (
1#
#1980
b110 )
0#
#1990
b110 (
1#
#2000
b111 )
0#
#2010
b111 (
1#
#2020
b0 )
0#
#2030
b0 (
1#
#2040
b1 )
0#
#2050
b1 (
1#
#2060
b10 )
0#
#2070
b10 (
1#
#2080
b11 )
0#
#2090
b11 (
1#
#2100
b100 )
0#
#2110
b100 (
1#
#2120
b101 )
0#
#2130
b101 (
1#
#2140
b110 )
0#
#2150
b110 (
1#
#2160
b111 )
0#
#2170
b111 (
1#
#2180
b0 )
0#
#2190
b0 (
1#
#2200
b1 )
0#
#2210
b1 (
1#
#2220
b10 )
0#
#2230
b10 (
1#
#2240
b11 )
0#
#2250
b11 (
1#
#2260
b100 )
0#
#2270
b100 (
1#
#2280
b101 )
0#
#2290
b101 (
1#
#2300
b110 )
0#
#2310
b110 (
1#
#2320
b111 )
0#
#2330
b111 (
1#
#2340
b0 )
0#
#2350
b0 (
1#
#2360
b1 )
0#
#2370
b1 (
1#
#2380
b10 )
0#
#2390
b10 (
1#
#2400
b11 )
0#
#2410
b11 (
1#
#2420
b100 )
0#
#2430
b100 (
1#
#2440
b101 )
0#
#2450
b101 (
1#
#2460
b110 )
0#
#2470
b110 (
1#
#2480
b111 )
0#
#2490
b111 (
1#
#2500
b0 )
0#
#2510
b0 (
1#
#2520
b1 )
0#
#2530
b1 (
1#
#2540
b10 )
0#
#2550
b10 (
1#
#2560
b11 )
0#
#2570
b11 (
1#
#2580
b100 )
0#
#2590
b100 (
1#
#2600
b101 )
0#
#2610
b101 (
1#
#2620
b110 )
0#
#2630
b110 (
1#
#2640
b111 )
0#
#2650
b111 (
1#
#2660
b0 )
0#
#2670
b0 (
1#
#2680
b1 )
0#
#2690
b1 (
1#
#2700
b10 )
0#
#2710
b10 (
1#
#2720
b11 )
0#
#2730
b11 (
1#
#2740
b100 )
0#
#2750
b100 (
1#
#2760
b101 )
0#
#2770
b101 (
1#
#2780
b110 )
0#
#2790
b110 (
1#
#2800
b111 )
0#
#2810
b111 (
1#
#2820
b0 )
0#
#2830
b0 (
1#
#2840
b1 )
0#
#2850
b1 (
1#
#2860
b10 )
0#
#2870
b10 (
1#
#2880
b11 )
0#
#2890
b11 (
1#
#2900
b100 )
0#
#2910
b100 (
1#
#2920
b101 )
0#
#2930
b101 (
1#
#2940
b110 )
0#
#2950
b110 (
1#
#2960
b111 )
0#
#2970
b111 (
1#
#2980
b0 )
0#
#2990
b0 (
1#
#3000
b1 )
0#
#3010
b1 (
1#
#3020
b10 )
0#
#3030
b10 (
1#
#3040
b11 )
0#
#3050
b11 (
1#
#3060
b100 )
0#
#3070
b100 (
1#
#3080
b101 )
0#
#3090
b101 (
1#
#3100
b110 )
0#
#3110
b110 (
1#
#3120
b111 )
0#
#3130
b111 (
1#
#3140
b0 )
0#
#3150
b0 (
1#
#3160
b1 )
0#
#3170
b1 (
1#
#3180
b10 )
0#
#3190
b10 (
1#
#3200
b11 )
0#
#3210
b11 (
1#
#3220
b100 )
0#
#3230
b100 (
1#
#3240
b101 )
0#
#3250
b101 (
1#
#3260
b110 )
0#
#3270
b110 (
1#
#3280
b111 )
0#
#3290
b111 (
1#
#3300
b0 )
0#
#3310
b0 (
1#
#3320
b1 )
0#
#3330
b1 (
1#
#3340
b10 )
0#
#3350
b10 (
1#
#3360
b11 )
0#
#3370
b11 (
1#
#3380
b100 )
0#
#3390
b100 (
1#
#3400
b101 )
0#
#3410
b101 (
1#
#3420
b110 )
0#
#3430
b110 (
1#
#3440
b111 )
0#
#3450
b111 (
1#
#3460
b0 )
0#
#3470
b0 (
1#
#3480
b1 )
0#
#3490
b1 (
1#
#3500
b10 )
0#
#3510
b10 (
1#
#3520
b11 )
0#
#3530
b11 (
1#
#3540
b100 )
0#
#3550
b100 (
1#
#3560
b101 )
0#
#3570
b101 (
1#
#3580
b110 )
0#
#3590
b110 (
1#
#3600
b111 )
0#
#3610
b111 (
1#
#3620
b0 )
0#
#3630
b0 (
1#
#3640
b1 )
0#
#3650
b1 (
1#
#3660
b10 )
0#
#3670
b10 (
1#
#3680
b11 )
0#
#3690
b11 (
1#
#3700
b100 )
0#
#3710
b100 (
1#
#3720
b101 )
0#
#3730
b101 (
1#
#3740
b110 )
0#
#3750
b110 (
1#
#3760
b111 )
0#
#3770
b111 (
1#
#3780
b0 )
0#
#3790
b0 (
1#
#3800
b1 )
0#
#3810
b1 (
1#
#3820
b10 )
0#
#3830
b10 (
1#
#3840
b11 )
0#
#3850
b11 (
1#
#3860
b100 )
0#
#3870
b100 (
1#
#3880
b101 )
0#
#3890
b101 (
1#
#3900
b110 )
0#
#3910
b110 (
1#
#3920
b111 )
0#
#3930
b111 (
1#
#3940
b0 )
0#
#3950
b0 (
1#
#3960
b1 )
0#
#3970
b1 (
1#
#3980
b10 )
0#
#3990
b10 (
1#
#4000
b11 )
0#
#4010
b11 (
1#
#4020
b100 )
0#
#4030
b100 (
1#
#4040
b101 )
0#
#4050
b101 (
1#
#4060
b110 )
0#
#4070
b110 (
1#
#4080
b111 )
0#
#4090
b111 (
1#
#4100
b0 )
0#
#4110
b0 (
1#
#4120
b1 )
0#
#4130
b1 (
1#
#4140
b10 )
0#
#4150
b10 (
1#
#4160
b11 )
0#
#4170
b11 (
1#
#4180
b100 )
0#
#4190
b100 (
1#
#4200
b101 )
0#
#4210
b101 (
1#
#4220
b110 )
0#
#4230
b110 (
1#
#4240
b111 )
0#
#4250
b111 (
1#
#4260
b0 )
0#
#4270
b0 (
1#
#4280
b1 )
0#
#4290
b1 (
1#
#4300
b10 )
0#
#4310
b10 (
1#
#4320
b11 )
0#
#4330
b11 (
1#
#4340
b100 )
0#
#4350
b100 (
1#
#4360
b101 )
0#
#4370
b101 (
1#
#4380
b110 )
0#
#4390
b110 (
1#
#4400
b111 )
0#
#4410
b111 (
1#
#4420
b0 )
0#
#4430
b0 (
1#
#4440
b1 )
0#
#4450
b1 (
1#
#4460
b10 )
0#
#4470
b10 (
1#
#4480
b11 )
0#
#4490
b11 (
1#
#4500
b100 )
0#
#4510
b100 (
1#
#4520
b101 )
0#
#4530
b101 (
1#
#4540
b110 )
0#
#4550
b110 (
1#
#4560
b111 )
0#
#4570
b111 (
1#
#4580
b0 )
0#
#4590
b0 (
1#
#4600
b1 )
0#
#4610
b1 (
1#
#4620
b10 )
0#
#4630
b10 (
1#
#4640
b11 )
0#
#4650
b11 (
1#
#4660
b100 )
0#
#4670
b100 (
1#
#4680
b101 )
0#
#4690
b101 (
1#
#4700
b110 )
0#
#4710
b110 (
1#
#4720
b111 )
0#
#4730
b111 (
1#
#4740
b0 )
0#
#4750
b0 (
1#
#4760
b1 )
0#
#4770
b1 (
1#
#4780
b10 )
0#
#4790
b10 (
1#
#4800
b11 )
0#
#4810
b11 (
1#
#4820
b100 )
0#
#4830
b100 (
1#
#4840
b101 )
0#
#4850
b101 (
1#
#4860
b110 )
0#
#4870
b110 (
1#
#4880
b111 )
0#
#4890
b111 (
1#
#4900
b0 )
0#
#4910
b0 (
1#
#4920
b1 )
0#
#4930
b1 (
1#
#4940
b10 )
0#
#4950
b10 (
1#
#4960
b11 )
0#
#4970
b11 (
1#
#4980
b100 )
0#
#4990
b100 (
1#
#5000
b101 )
0#
#5010
b101 (
1#
#5020
b110 )
0#
#5030
b110 (
1#
#5040
b111 )
0#
#5050
b111 (
1#
#5060
b0 )
0#
#5070
b0 (
1#
#5080
b1 )
0#
#5090
b1 (
1#
#5100
b10 )
0#
#5110
b10 (
1#
#5120
b11 )
0#
#5130
b11 (
1#
#5140
b100 )
0#
#5150
b100 (
1#
#5160
b101 )
0#
#5170
b101 (
1#
#5180
b110 )
0#
#5190
b110 (
1#
#5200
b111 )
0#
#5210
b111 (
1#
#5220
b0 )
0#
#5230
b0 (
1#
#5240
b1 )
0#
#5250
b1 (
1#
#5260
b10 )
0#
#5270
b10 (
1#
#5280
b11 )
0#
#5290
b11 (
1#
#5300
b100 )
0#
#5310
b100 (
1#
#5320
b101 )
0#
#5330
b101 (
1#
#5340
b110 )
0#
#5350
b110 (
1#
#5360
b111 )
0#
#5370
b111 (
1#
#5380
b0 )
0#
#5390
b0 (
1#
#5400
b1 )
0#
#5410
b1 (
1#
#5420
b10 )
0#
#5430
b10 (
1#
#5440
b11 )
0#
#5450
b11 (
1#
#5460
b100 )
0#
#5470
b100 (
1#
#5480
b101 )
0#
#5490
b101 (
1#
#5500
b110 )
0#
#5510
b110 (
1#
#5520
b111 )
0#
#5530
b111 (
1#
#5540
b0 )
0#
#5550
b0 (
1#
#5560
b1 )
0#
#5570
b1 (
1#
#5580
b10 )
0#
#5590
b10 (
1#
#5600
b11 )
0#
#5610
b11 (
1#
#5620
b100 )
0#
#5630
b100 (
1#
#5640
b101 )
0#
#5650
b101 (
1#
#5660
b110 )
0#
#5670
b110 (
1#
#5680
b111 )
0#
#5690
b111 (
1#
#5700
b0 )
0#
#5710
b0 (
1#
#5720
b1 )
0#
#5730
b1 (
1#
#5740
b10 )
0#
#5750
b10 (
1#
#5760
b11 )
0#
#5770
b11 (
1#
#5780
b100 )
0#
#5790
b100 (
1#
#5800
b101 )
0#
#5810
b101 (
1#
#5820
b110 )
0#
#5830
b110 (
1#
#5840
b111 )
0#
#5850
b111 (
1#
#5860
b0 )
0#
#5870
b0 (
1#
#5880
b1 )
0#
#5890
b1 (
1#
#5900
b10 )
0#
#5910
b10 (
1#
#5920
b11 )
0#
#5930
b11 (
1#
#5940
b100 )
0#
#5950
b100 (
1#
#5960
b101 )
0#
#5970
b101 (
1#
#5980
b110 )
0#
#5990
b110 (
1#
#6000
b111 )
0#
#6010
b111 (
1#
#6020
b0 )
0#
#6030
b0 (
1#
#6040
b1 )
0#
#6050
b1 (
1#
#6060
b10 )
0#
#6070
b10 (
1#
#6080
b11 )
0#
#6090
b11 (
1#
#6100
b100 )
0#
#6110
b100 (
1#
#6120
b101 )
0#
#6130
b101 (
1#
#6140
b110 )
0#
#6150
b110 (
1#
#6160
b111 )
0#
#6170
b111 (
1#
#6180
b0 )
0#
#6190
b0 (
1#
#6200
b1 )
0#
#6210
b1 (
1#
#6220
b10 )
0#
#6230
b10 (
1#
#6240
b11 )
0#
#6250
b11 (
1#
#6260
b100 )
0#
#6270
b100 (
1#
#6280
b101 )
0#
#6290
b101 (
1#
#6300
b110 )
0#
#6310
b110 (
1#
#6320
b111 )
0#
#6330
b111 (
1#
#6340
b0 )
0#
#6350
b0 (
1#
#6360
b1 )
0#
#6370
b1 (
1#
#6380
b10 )
0#
#6390
b10 (
1#
#6400
b11 )
0#
#6410
b11 (
1#
#6420
b100 )
0#
#6430
b100 (
1#
#6440
b101 )
0#
#6450
b101 (
1#
#6460
b110 )
0#
#6470
b110 (
1#
#6480
b111 )
0#
#6490
b111 (
1#
#6500
b0 )
0#
#6510
b0 (
1#
#6520
b1 )
0#
#6530
b1 (
1#
#6540
b10 )
0#
#6550
b10 (
1#
#6560
b11 )
0#
#6570
b11 (
1#
#6580
b100 )
0#
#6590
b100 (
1#
#6600
b101 )
0#
#6610
b101 (
1#
#6620
b110 )
0#
#6630
b110 (
1#
#6640
b111 )
0#
#6650
b111 (
1#
#6660
b0 )
0#
#6670
b0 (
1#
#6680
b1 )
0#
#6690
b1 (
1#
#6700
b10 )
0#
#6710
b10 (
1#
#6720
b11 )
0#
#6730
b11 (
1#
#6740
b100 )
0#
#6750
b100 (
1#
#6760
b101 )
0#
#6770
b101 (
1#
#6780
b110 )
0#
#6790
b110 (
1#
#6800
b111 )
0#
#6810
b111 (
1#
#6820
b0 )
0#
#6830
b0 (
1#
#6840
b1 )
0#
#6850
b1 (
1#
#6860
b10 )
0#
#6870
b10 (
1#
#6880
b11 )
0#
#6890
b11 (
1#
#6900
b100 )
0#
#6910
b100 (
1#
#6920
b101 )
0#
#6930
b101 (
1#
#6940
b110 )
0#
#6950
b110 (
1#
#6960
b111 )
0#
#6970
b111 (
1#
#6980
b0 )
0#
#6990
b0 (
1#
#7000
b1 )
0#
#7010
b1 (
1#
#7020
b10 )
0#
#7030
b10 (
1#
#7040
b11 )
0#
#7050
b11 (
1#
#7060
b100 )
0#
#7070
b100 (
1#
#7080
b101 )
0#
#7090
b101 (
1#
#7100
b110 )
0#
#7110
b110 (
1#
#7120
b111 )
0#
#7130
b111 (
1#
#7140
b0 )
0#
#7150
b0 (
1#
#7160
b1 )
0#
#7170
b1 (
1#
#7180
b10 )
0#
#7190
b10 (
1#
#7200
b11 )
0#
#7210
b11 (
1#
#7220
b100 )
0#
#7230
b100 (
1#
#7240
b101 )
0#
#7250
b101 (
1#
#7260
b110 )
0#
#7270
b110 (
1#
#7280
b111 )
0#
#7290
b111 (
1#
#7300
b0 )
0#
#7310
b0 (
1#
#7320
b1 )
0#
#7330
b1 (
1#
#7340
b10 )
0#
#7350
b10 (
1#
#7360
b11 )
0#
#7370
b11 (
1#
#7380
b100 )
0#
#7390
b100 (
1#
#7400
b101 )
0#
#7410
b101 (
1#
#7420
b110 )
0#
#7430
b110 (
1#
#7440
b111 )
0#
#7450
b111 (
1#
#7460
b0 )
0#
#7470
b0 (
1#
#7480
b1 )
0#
#7490
b1 (
1#
#7500
b10 )
0#
#7510
b10 (
1#
#7520
b11 )
0#
#7530
b11 (
1#
#7540
b100 )
0#
#7550
b100 (
1#
#7560
b101 )
0#
#7570
b101 (
1#
#7580
b110 )
0#
#7590
b110 (
1#
#7600
b111 )
0#
#7610
b111 (
1#
#7620
b0 )
0#
#7630
b0 (
1#
#7640
b1 )
0#
#7650
b1 (
1#
#7660
b10 )
0#
#7670
b10 (
1#
#7680
b11 )
0#
#7690
b11 (
1#
#7700
b100 )
0#
#7710
b100 (
1#
#7720
b101 )
0#
#7730
b101 (
1#
#7740
b110 )
0#
#7750
b110 (
1#
#7760
b111 )
0#
#7770
b111 (
1#
#7780
b0 )
0#
#7790
b0 (
1#
#7800
b1 )
0#
#7810
b1 (
1#
#7820
b10 )
0#
#7830
b10 (
1#
#7840
b11 )
0#
#7850
b11 (
1#
#7860
b100 )
0#
#7870
b100 (
1#
#7880
b101 )
0#
#7890
b101 (
1#
#7900
b110 )
0#
#7910
b110 (
1#
#7920
b111 )
0#
#7930
b111 (
1#
#7940
b0 )
0#
#7950
b0 (
1#
#7960
b1 )
0#
#7970
b1 (
1#
#7980
b10 )
0#
#7990
b10 (
1#
#8000
b11 )
0#
#8010
b11 (
1#
#8020
b100 )
0#
#8030
b100 (
1#
#8040
b101 )
0#
#8050
b101 (
1#
#8060
b110 )
0#
#8070
b110 (
1#
#8080
b111 )
0#
#8090
b111 (
1#
#8100
b0 )
0#
#8110
b0 (
1#
#8120
b1 )
0#
#8130
b1 (
1#
#8140
b10 )
0#
#8150
b10 (
1#
#8160
b11 )
0#
#8170
b11 (
1#
#8180
b100 )
0#
#8190
b100 (
1#
#8200
b101 )
0#
#8210
b101 (
1#
#8220
b110 )
0#
#8230
b110 (
1#
#8240
b111 )
0#
#8250
b111 (
1#
#8260
b0 )
0#
#8270
b0 (
1#
#8280
b1 )
0#
#8290
b1 (
1#
#8300
b10 )
0#
#8310
b10 (
1#
#8320
b11 )
0#
#8330
b11 (
1#
#8340
b100 )
0#
#8350
b100 (
1#
#8360
b101 )
0#
#8370
b101 (
1#
#8380
b110 )
0#
#8390
b110 (
1#
#8400
b111 )
0#
#8410
b111 (
1#
#8420
b0 )
0#
#8430
b0 (
1#
#8440
b1 )
0#
#8450
b1 (
1#
#8460
b10 )
0#
#8470
b10 (
1#
#8480
b11 )
0#
#8490
b11 (
1#
#8500
b100 )
0#
#8510
b100 (
1#
#8520
b101 )
0#
#8530
b101 (
1#
#8540
b110 )
0#
#8550
b110 (
1#
#8560
b111 )
0#
#8570
b111 (
1#
#8580
b0 )
0#
#8590
b0 (
1#
#8600
b1 )
0#
#8610
b1 (
1#
#8620
b10 )
0#
#8630
b10 (
1#
#8640
b11 )
0#
#8650
b11 (
1#
#8660
b100 )
0#
#8670
b100 (
1#
#8680
b101 )
0#
#8690
b101 (
1#
#8700
b110 )
0#
#8710
b110 (
1#
#8720
b111 )
0#
#8730
b111 (
1#
#8740
b0 )
0#
#8750
b0 (
1#
#8760
b1 )
0#
#8770
b1 (
1#
#8780
b10 )
0#
#8790
b10 (
1#
#8800
b11 )
0#
#8810
b11 (
1#
#8820
b100 )
0#
#8830
b100 (
1#
#8840
b101 )
0#
#8850
b101 (
1#
#8860
b110 )
0#
#8870
b110 (
1#
#8880
b111 )
0#
#8890
b111 (
1#
#8900
b0 )
0#
#8910
b0 (
1#
#8920
b1 )
0#
#8930
b1 (
1#
#8940
b10 )
0#
#8950
b10 (
1#
#8960
b11 )
0#
#8970
b11 (
1#
#8980
b100 )
0#
#8990
b100 (
1#
#9000
b101 )
0#
#9010
b101 (
1#
#9020
b110 )
0#
#9030
b110 (
1#
#9040
b111 )
0#
#9050
b111 (
1#
#9060
b0 )
0#
#9070
b0 (
1#
#9080
b1 )
0#
#9090
b1 (
1#
#9100
b10 )
0#
#9110
b10 (
1#
#9120
b11 )
0#
#9130
b11 (
1#
#9140
b100 )
0#
#9150
b100 (
1#
#9160
b101 )
0#
#9170
b101 (
1#
#9180
b110 )
0#
#9190
b110 (
1#
#9200
b111 )
0#
#9210
b111 (
1#
#9220
b0 )
0#
#9230
b0 (
1#
#9240
b1 )
0#
#9250
b1 (
1#
#9260
b10 )
0#
#9270
b10 (
1#
#9280
b11 )
0#
#9290
b11 (
1#
#9300
b100 )
0#
#9310
b100 (
1#
#9320
b101 )
0#
#9330
b101 (
1#
#9340
b110 )
0#
#9350
b110 (
1#
#9360
b111 )
0#
#9370
b111 (
1#
#9380
b0 )
0#
#9390
b0 (
1#
#9400
b1 )
0#
#9410
b1 (
1#
#9420
b10 )
0#
#9430
b10 (
1#
#9440
b11 )
0#
#9450
b11 (
1#
#9460
b100 )
0#
#9470
b100 (
1#
#9480
b101 )
0#
#9490
b101 (
1#
#9500
b110 )
0#
#9510
b110 (
1#
#9520
b111 )
0#
#9530
b111 (
1#
#9540
b0 )
0#
#9550
b0 (
1#
#9560
b1 )
0#
#9570
b1 (
1#
#9580
b10 )
0#
#9590
b10 (
1#
#9600
b11 )
0#
#9610
b11 (
1#
#9620
b100 )
0#
#9630
b100 (
1#
#9640
b101 )
0#
#9650
b101 (
1#
#9660
b110 )
0#
#9670
b110 (
1#
#9680
b111 )
0#
#9690
b111 (
1#
#9700
b0 )
0#
#9710
b0 (
1#
#9720
b1 )
0#
#9730
b1 (
1#
#9740
b10 )
0#
#9750
b10 (
1#
#9760
b11 )
0#
#9770
b11 (
1#
#9780
b100 )
0#
#9790
b100 (
1#
#9800
b101 )
0#
#9810
b101 (
1#
#9820
b110 )
0#
#9830
b110 (
1#
#9840
b111 )
0#
#9850
b111 (
1#
#9860
b0 )
0#
#9870
b0 (
1#
#9880
b1 )
0#
#9890
b1 (
1#
#9900
b10 )
0#
#9910
b10 (
1#
#9920
b11 )
0#
#9930
b11 (
1#
#9940
b100 )
0#
#9950
b100 (
1#
#9960
b101 )
0#
#9970
b101 (
1#
#9980
b110 )
0#
#9990
b110 (
1#
#10000
b111 )
0#
