miscelaneos/serial_to_parallel/simulation.vcd
$date
	Wed May  9 11:01:31 2018
$end
$version
	Icarus Verilog
$end
$timescale
	100ps
$end
$scope module testbench $end
$var wire 1 ! wRESET $end
$var wire 1 " DATA_IN $end
$var wire 1 # CLK $end
$scope module prob $end
$var reg 1 # CLK $end
$var reg 1 " DATA_IN $end
$var reg 1 ! RESET $end
$upscope $end
$scope module uut_cond $end
$var wire 1 # CLK $end
$var wire 1 " DATA_IN $end
$var wire 1 ! RESET $end
$var wire 1 $ Valid $end
$var reg 9 % DATA_OUT [8:0] $end
$var reg 8 & check [7:0] $end
$var reg 7 ' rBuffer [6:0] $end
$var reg 3 ( rCurrentState [2:0] $end
$var reg 3 ) rNextState [2:0] $end
$upscope $end
$upscope $end
$enddefinitions $end
#0
$dumpvars
bx )
bx (
bx '
bx &
bx %
x$
0#
x"
0!
$end
#10
1#
#20
0#
#30
1#
#40
0#
#50
1#
1!
#60
0#
#70
1#
#80
0#
#90
1#
0!
#100
0#
#110
1#
1"
#120
0#
#130
1#
#140
0#
#150
1#
#160
0#
#170
1#
#180
0#
#190
1#
0"
#200
0#
#210
1#
1"
#220
0#
#230
1#
#240
0#
#250
1#
#260
0#
#270
1#
#280
0#
#290
1#
0"
#300
0#
#310
1#
1"
#320
0#
#330
1#
#340
0#
#350
1#
#360
0#
#370
1#
#380
0#
#390
1#
0"
#400
0#
#410
1#
#420
0#
#430
1#
1"
#440
0#
#450
1#
0"
#460
0#
#470
1#
1"
#480
0#
#490
1#
0"
#500
0#
#510
1#
1"
#520
0#
#530
1#
0"
#540
0#
#550
1#
1"
#560
0#
#570
1#
0"
#580
0#
#590
1#
#600
0#
#610
1#
#620
0#
#630
1#
#640
0#
#650
1#
#660
0#
#670
1#
1"
#680
0#
#690
1#
#700
0#
#710
1#
0"
#720
0#
#730
1#
#740
0#
#750
1#
#760
0#
#770
1#
1"
#780
0#
#790
1#
0"
#800
0#
#810
1#
1"
#820
0#
#830
1#
0"
#840
0#
#850
1#
1"
#860
0#
#870
1#
0"
#880
0#
#890
1#
1"
