miscelaneos/ByteTX_to_ByteRX/simulation.vcd
$date
	Sat May 26 18:24:45 2018
$end
$version
	Icarus Verilog
$end
$timescale
	100ps
$end
$scope module pruebas_pcie $end
$var wire 1 ! reset $end
$var wire 1 " Valid $end
$var wire 1 # RESET $end
$var wire 8 $ DATA [7:0] $end
$var wire 1 % CLK $end
$scope module PCIETest $end
$var wire 1 ! reset $end
$var wire 8 & paralelo3 [7:0] $end
$var wire 8 ' paralelo2 [7:0] $end
$var wire 8 ( paralelo1 [7:0] $end
$var wire 8 ) paralelo0 [7:0] $end
$var wire 1 * dataserial3 $end
$var wire 1 + dataserial2 $end
$var wire 1 , dataserial1 $end
$var wire 1 - dataserial0 $end
$var wire 8 . data3 [7:0] $end
$var wire 8 / data2 [7:0] $end
$var wire 8 0 data1 [7:0] $end
$var wire 8 1 data0 [7:0] $end
$var wire 1 2 clk250 $end
$var wire 1 " VALID $end
$var wire 1 # RESET $end
$var wire 8 3 OUTSTRIPING [7:0] $end
$var wire 8 4 DATA [7:0] $end
$var wire 1 % CLK $end
$scope module byteRX $end
$var wire 1 " valid $end
$var wire 1 # reset $end
$var wire 8 5 data_in3 [7:0] $end
$var wire 8 6 data_in2 [7:0] $end
$var wire 8 7 data_in1 [7:0] $end
$var wire 8 8 data_in0 [7:0] $end
$var wire 1 2 clk $end
$var reg 8 9 data [7:0] $end
$var reg 8 : data_next [7:0] $end
$var reg 8 ; next_state [7:0] $end
$var reg 8 < state [7:0] $end
$upscope $end
$scope module byteTX $end
$var wire 1 " valid $end
$var wire 1 # reset $end
$var wire 8 = data [7:0] $end
$var wire 1 2 clk $end
$var reg 8 > data_out0 [7:0] $end
$var reg 8 ? data_out0_next [7:0] $end
$var reg 8 @ data_out1 [7:0] $end
$var reg 8 A data_out1_next [7:0] $end
$var reg 8 B data_out2 [7:0] $end
$var reg 8 C data_out2_next [7:0] $end
$var reg 8 D data_out3 [7:0] $end
$var reg 8 E data_out3_next [7:0] $end
$var reg 3 F next_state [2:0] $end
$var reg 3 G state [2:0] $end
$upscope $end
$scope module clkbyte $end
$var wire 1 ! RESET $end
$var wire 1 % CLK $end
$var reg 1 2 CLK_250hz $end
$var reg 5 H counter [4:0] $end
$upscope $end
$scope module parallel0 $end
$var wire 1 # RESET $end
$var wire 1 - DATA_IN $end
$var wire 1 % CLK $end
$var reg 8 I DATA_OUT [7:0] $end
$var reg 8 J DataOut_next [7:0] $end
$var reg 1 K Start $end
$var reg 1 L Valid $end
$var reg 1 M Valid_neg $end
$var reg 1 N Valid_next $end
$var reg 8 O check [7:0] $end
$var reg 7 P rBuffer [6:0] $end
$var reg 3 Q rCurrentState [2:0] $end
$upscope $end
$scope module parallel1 $end
$var wire 1 # RESET $end
$var wire 1 , DATA_IN $end
$var wire 1 % CLK $end
$var reg 8 R DATA_OUT [7:0] $end
$var reg 8 S DataOut_next [7:0] $end
$var reg 1 T Start $end
$var reg 1 U Valid $end
$var reg 1 V Valid_neg $end
$var reg 1 W Valid_next $end
$var reg 8 X check [7:0] $end
$var reg 7 Y rBuffer [6:0] $end
$var reg 3 Z rCurrentState [2:0] $end
$upscope $end
$scope module parallel2 $end
$var wire 1 # RESET $end
$var wire 1 + DATA_IN $end
$var wire 1 % CLK $end
$var reg 8 [ DATA_OUT [7:0] $end
$var reg 8 \ DataOut_next [7:0] $end
$var reg 1 ] Start $end
$var reg 1 ^ Valid $end
$var reg 1 _ Valid_neg $end
$var reg 1 ` Valid_next $end
$var reg 8 a check [7:0] $end
$var reg 7 b rBuffer [6:0] $end
$var reg 3 c rCurrentState [2:0] $end
$upscope $end
$scope module parallel3 $end
$var wire 1 # RESET $end
$var wire 1 * DATA_IN $end
$var wire 1 % CLK $end
$var reg 8 d DATA_OUT [7:0] $end
$var reg 8 e DataOut_next [7:0] $end
$var reg 1 f Start $end
$var reg 1 g Valid $end
$var reg 1 h Valid_neg $end
$var reg 1 i Valid_next $end
$var reg 8 j check [7:0] $end
$var reg 7 k rBuffer [6:0] $end
$var reg 3 l rCurrentState [2:0] $end
$upscope $end
$scope module serial0 $end
$var wire 8 m DATA_IN [7:0] $end
$var wire 1 " Valid $end
$var wire 1 # RESET $end
$var wire 1 % CLK $end
$var reg 1 - DATA_OUT $end
$var reg 8 n rBuffer [7:0] $end
$var reg 3 o rCurrentState [2:0] $end
$upscope $end
$scope module serial1 $end
$var wire 8 p DATA_IN [7:0] $end
$var wire 1 " Valid $end
$var wire 1 # RESET $end
$var wire 1 % CLK $end
$var reg 1 , DATA_OUT $end
$var reg 8 q rBuffer [7:0] $end
$var reg 3 r rCurrentState [2:0] $end
$upscope $end
$scope module serial2 $end
$var wire 8 s DATA_IN [7:0] $end
$var wire 1 " Valid $end
$var wire 1 # RESET $end
$var wire 1 % CLK $end
$var reg 1 + DATA_OUT $end
$var reg 8 t rBuffer [7:0] $end
$var reg 3 u rCurrentState [2:0] $end
$upscope $end
$scope module serial3 $end
$var wire 8 v DATA_IN [7:0] $end
$var wire 1 " Valid $end
$var wire 1 # RESET $end
$var wire 1 % CLK $end
$var reg 1 * DATA_OUT $end
$var reg 8 w rBuffer [7:0] $end
$var reg 3 x rCurrentState [2:0] $end
$upscope $end
$upscope $end
$scope module probador $end
$var reg 1 % CLK $end
$var reg 8 y DATA [7:0] $end
$var reg 1 # RESET $end
$var reg 1 " Valid $end
$var reg 1 ! reset $end
$upscope $end
$upscope $end
$enddefinitions $end
#0
$dumpvars
b0 y
bx x
bx w
bx v
bx u
bx t
bx s
bx r
bx q
bx p
bx o
bx n
bx m
bx l
bx k
bx j
xi
xh
xg
xf
bx e
bx d
bx c
bx b
bx a
x`
x_
x^
x]
bx \
bx [
bx Z
bx Y
bx X
xW
xV
xU
xT
bx S
bx R
bx Q
bx P
bx O
xN
xM
xL
xK
bx J
bx I
bx H
bx G
bx F
bx E
bx D
bx C
bx B
bx A
bx @
bx ?
bx >
b0 =
bx <
b0 ;
bx :
bx 9
bx 8
bx 7
bx 6
bx 5
b0 4
bx 3
x2
bx 1
bx 0
bx /
bx .
x-
x,
x+
x*
bx )
bx (
bx '
bx &
0%
b0 $
1#
0"
1!
$end
#10
0K
1M
0N
0T
1V
0W
0]
1_
0`
0f
1h
0i
02
b0 H
b0 o
b0 r
b0 u
b0 x
b0 Q
0L
b0 O
b0 Z
0U
b0 X
b0 c
0^
b0 a
b0 l
0g
b0 j
1%
#20
0%
#30
1%
#40
0%
#50
1%
#60
0%
#70
1%
#80
0%
#90
1%
#100
0%
#110
1%
#120
0%
#130
1%
#140
0%
#150
1%
#160
0%
#170
1%
#180
0%
#190
1%
#200
0%
#210
1%
#220
0%
#230
1%
#240
0%
#250
1%
#260
0%
#270
1%
#280
0%
#290
1%
#300
0%
#310
1%
#320
0%
0!
#330
b1 H
1%
#340
0%
#350
b10 H
1%
#360
0%
#370
b11 H
1%
#380
0%
#390
b100 H
1%
#400
0%
#410
b101 H
1%
#420
0%
#430
b110 H
1%
#440
0%
#450
b111 H
1%
#460
0%
#470
b0 E
b0 C
b0 A
b0 ?
b10 ;
b0 :
b0 .
b0 D
b0 v
b0 /
b0 B
b0 s
b0 0
b0 @
b0 p
b0 1
b0 >
b0 m
b0 F
b0 G
b0 3
b0 9
b10 <
12
b1000 H
1%
#480
0%
#490
b1001 H
1%
#500
0%
#510
b1010 H
1%
#520
0%
#530
b1011 H
1%
#540
0%
#550
b1100 H
1%
#560
0%
#570
b1101 H
1%
#580
0%
#590
b1110 H
1%
#600
0%
#610
b1111 H
1%
#620
0%
#630
02
b0 H
1%
#640
0%
0#
#650
b1 H
b0x O
b0x X
b0x a
b0x j
1%
#660
0%
#670
b0xx j
b0xx a
b0xx X
b0xx O
b10 H
1%
#680
0%
#690
b11 H
b0xxx O
b0xxx X
b0xxx a
b0xxx j
1%
#700
0%
#710
b0xxxx j
b0xxxx a
b0xxxx X
b0xxxx O
b100 H
1%
#720
0%
#730
b101 H
b0xxxxx O
b0xxxxx X
b0xxxxx a
b0xxxxx j
1%
#740
0%
#750
b0xxxxxx j
b0xxxxxx a
b0xxxxxx X
b0xxxxxx O
b110 H
1%
#760
0%
#770
b111 H
b0xxxxxxx O
b0xxxxxxx X
b0xxxxxxx a
b0xxxxxxx j
1%
#780
0%
#790
bx j
bx a
bx X
bx O
12
b1000 H
1%
#800
0%
#810
b1001 H
1%
#820
0%
#830
b1010 H
1%
#840
0%
#850
b1011 H
1%
#860
0%
#870
b1100 H
1%
#880
0%
#890
b1101 H
1%
#900
0%
#910
b1110 H
1%
#920
0%
#930
b1111 H
1%
#940
0%
#950
02
b0 H
1%
#960
0%
#970
b1 H
1%
#980
0%
#990
b10 H
1%
#1000
0%
#1010
b11 H
1%
#1020
0%
#1030
b100 H
1%
#1040
0%
#1050
b101 H
1%
#1060
0%
#1070
b110 H
1%
#1080
0%
#1090
b111 H
1%
#1100
0%
#1110
bx 3
bx 9
b100 <
b100101 1
b100101 >
b100101 m
b1 G
b100101 ?
b1 F
b1 x
0*
b0 w
b1 u
0+
b0 t
b1 r
0,
b0 q
b1 o
0-
b0 n
12
b1000 H
1%
bx :
b1000 ;
1"
b100101 $
b100101 4
b100101 =
b100101 y
#1120
0%
#1130
b1001 H
b10 o
b10 r
b10 u
b10 x
bx0 O
bx0 X
bx0 a
bx0 j
1%
#1140
0%
#1150
bx00 j
bx00 a
bx00 X
bx00 O
b11 x
b11 u
b11 r
b11 o
b1010 H
1%
#1160
0%
#1170
b1011 H
b100 o
b100 r
b100 u
b100 x
bx000 O
bx000 X
bx000 a
bx000 j
1%
#1180
0%
#1190
bx0000 j
bx0000 a
bx0000 X
bx0000 O
b101 x
b101 u
b101 r
b101 o
b1100 H
1%
#1200
0%
#1210
b1101 H
b110 o
b110 r
b110 u
b110 x
bx00000 O
bx00000 X
bx00000 a
bx00000 j
1%
#1220
0%
#1230
bx000000 j
bx000000 a
bx000000 X
bx000000 O
b111 x
b111 u
b111 r
b111 o
b1110 H
1%
#1240
0%
#1250
b1111 H
b0 o
b0 r
b0 u
b0 x
bx0000000 O
bx0000000 X
bx0000000 a
bx0000000 j
1%
#1260
0%
#1270
b0 j
b0 a
b0 X
b0 O
b1 x
b1 u
b1 r
b1 o
b100101 n
02
b0 H
1%
#1280
0%
#1290
b1 H
b10 o
b10 r
b10 u
b10 x
1%
#1300
0%
#1310
b11 x
b11 u
b11 r
b11 o
1-
b10 H
1%
#1320
0%
#1330
b11 H
b100 o
0-
b100 r
b100 u
b100 x
b1 O
1%
#1340
0%
#1350
b10 O
b101 x
b101 u
b101 r
b101 o
b100 H
1%
#1360
0%
#1370
b101 H
b110 o
1-
b110 r
b110 u
b110 x
b100 O
1%
#1380
0%
#1390
b1001 O
b111 x
b111 u
b111 r
b111 o
0-
b110 H
1%
#1400
0%
#1410
b111 H
b0 o
1-
b0 r
b0 u
b0 x
b10010 O
1%
#1420
0%
#1430
b10000 ;
b10111100 0
b10111100 @
b10111100 p
b10 G
b1000 <
b10111100 A
b10 F
b100101 O
b1 x
b1 u
b1 r
b1 o
0-
12
b1000 H
1%
b10111100 $
b10111100 4
b10111100 =
b10111100 y
#1440
0%
#1450
b1001 H
b10 o
b10 r
b10 u
b10 x
b1001010 O
1%
#1460
0%
#1470
b10010100 O
b11 x
b11 u
b11 r
b11 o
1-
b1010 H
1%
#1480
0%
#1490
b1011 H
b100 o
0-
b100 r
b100 u
b100 x
b101001 O
1%
#1500
0%
#1510
b1010010 O
b101 x
b101 u
b101 r
b101 o
b1100 H
1%
#1520
0%
#1530
b1101 H
b110 o
1-
b110 r
b110 u
b110 x
b10100100 O
1%
#1540
0%
#1550
b1001001 O
b111 x
b111 u
b111 r
b111 o
0-
b1110 H
1%
#1560
0%
#1570
b1111 H
b0 o
1-
b0 r
b0 u
b0 x
b10010010 O
1%
#1580
0%
#1590
b100101 O
b1 x
b1 u
b1 r
1,
b10111100 q
b1 o
0-
02
b0 H
1%
#1600
0%
#1610
b1 H
b10 o
b10 r
0,
b10 u
b10 x
b1001010 O
b1 X
1%
#1620
0%
#1630
b10 X
b10010100 O
b11 x
b11 u
b11 r
1,
b11 o
1-
b10 H
1%
#1640
0%
#1650
b11 H
b100 o
0-
b100 r
b100 u
b100 x
b101001 O
b101 X
1%
#1660
0%
#1670
b1011 X
b1010010 O
b101 x
b101 u
b101 r
b101 o
b100 H
1%
#1680
0%
#1690
b101 H
b110 o
1-
b110 r
b110 u
b110 x
b10100100 O
b10111 X
1%
#1700
0%
#1710
b101111 X
b1001001 O
b111 x
b111 u
b111 r
0,
b111 o
0-
b110 H
1%
#1720
0%
#1730
b111 H
b0 o
1-
b0 r
b0 u
b0 x
b10010010 O
b1011110 X
1%
#1740
0%
#1750
b10 ;
b10000 <
b11111001 /
b11111001 B
b11111001 s
b11 G
b10111100 S
1T
1W
b11111001 C
b11 F
b10111100 X
b100101 O
b1 x
b1 u
b1 r
1,
b1 o
0-
12
b1000 H
1%
b11111001 $
b11111001 4
b11111001 =
b11111001 y
#1760
0%
#1770
0T
0V
b10 ;
b1001 H
b10 o
b10 r
0,
b10 u
b10 x
b1001010 O
b1 Z
b1xxxxxx Y
1U
b10111100 (
b10111100 7
b10111100 R
1%
#1780
0%
#1790
b10 Z
b10xxxxx Y
b10010100 O
b11 x
b11 u
b11 r
1,
b11 o
1-
b1010 H
1%
#1800
0%
#1810
b1011 H
b100 o
0-
b100 r
b100 u
b100 x
b101001 O
b11 Z
b101xxxx Y
1%
#1820
0%
#1830
b100 Z
b1011xxx Y
b1010010 O
b101 x
b101 u
b101 r
b101 o
b1100 H
1%
#1840
0%
#1850
b1101 H
b110 o
1-
b110 r
b110 u
b110 x
b10100100 O
b101 Z
b10111xx Y
1%
#1860
0%
#1870
b110 Z
b101111x Y
b1001001 O
b111 x
b111 u
b111 r
0,
b111 o
0-
b1110 H
1%
#1880
0%
#1890
b1111 H
b0 o
1-
b0 r
b0 u
b0 x
b10010010 O
b111 Z
b1011110 Y
1%
#1900
0%
#1910
b0 Z
b100101 O
b1 x
b1 u
1+
b11111001 t
b1 r
1,
b1 o
0-
02
b0 H
1%
#1920
0%
#1930
b1 H
b10 o
b10 r
0,
b10 u
b10 x
b1001010 O
b1 Z
b1 a
1%
#1940
0%
#1950
b11 a
b10 Z
b10010100 O
b11 x
b11 u
b11 r
1,
b11 o
1-
b10 H
1%
#1960
0%
#1970
b11 H
b100 o
0-
b100 r
b100 u
b100 x
b101001 O
b11 Z
b111 a
1%
#1980
0%
#1990
b1111 a
b100 Z
b1010010 O
b101 x
b101 u
b101 r
b101 o
b100 H
1%
#2000
0%
#2010
b101 H
b110 o
1-
b110 r
b110 u
0+
b110 x
b10100100 O
b101 Z
b11111 a
1%
#2020
0%
#2030
b111110 a
b110 Z
b1001001 O
b111 x
b111 u
b111 r
0,
b111 o
0-
b110 H
1%
#2040
0%
#2050
b111 H
b0 o
1-
b0 r
b0 u
1+
b0 x
b10010010 O
b111 Z
b1111100 a
1%
#2060
0%
#2070
b10111100 :
b100 ;
b1001111 .
b1001111 D
b1001111 v
b0 G
b10 <
b1001111 E
b0 F
b11111001 a
b0 Z
b100101 O
b1 x
b1 u
b1 r
1,
b1 o
0-
12
b1000 H
1%
b1001111 $
b1001111 4
b1001111 =
b1001111 y
#2080
0%
#2090
b1001 H
b10 o
b10 r
0,
b10 u
b10 x
b1001010 O
b1 Z
b11110011 a
1%
#2100
0%
#2110
b11100111 a
b10 Z
b10010100 O
b11 x
b11 u
b11 r
1,
b11 o
1-
b1010 H
1%
#2120
0%
#2130
b1011 H
b100 o
0-
b100 r
b100 u
b100 x
b101001 O
b11 Z
b11001111 a
1%
#2140
0%
#2150
b10011111 a
b100 Z
b1010010 O
b101 x
b101 u
b101 r
b101 o
b1100 H
1%
#2160
0%
#2170
b1101 H
b110 o
1-
b110 r
b110 u
0+
b110 x
b10100100 O
b101 Z
b111111 a
1%
#2180
0%
#2190
b1111110 a
b110 Z
b1001001 O
b111 x
b111 u
b111 r
0,
b111 o
0-
b1110 H
1%
#2200
0%
#2210
b1111 H
b0 o
1-
b0 r
b0 u
1+
b0 x
b10010010 O
b111 Z
b11111100 a
1%
#2220
0%
#2230
b11111001 a
b0 Z
b100101 O
b1 x
b1001111 w
b1 u
b1 r
1,
b1 o
0-
02
b0 H
1%
#2240
0%
#2250
b1 H
b10 o
b10 r
0,
b10 u
b10 x
1*
b1001010 O
b1 Z
b11110011 a
1%
#2260
0%
#2270
b1 j
b11100111 a
b10 Z
b10010100 O
b11 x
0*
b11 u
b11 r
1,
b11 o
1-
b10 H
1%
#2280
0%
#2290
b11 H
b100 o
0-
b100 r
b100 u
b100 x
b101001 O
b11 Z
b11001111 a
b10 j
1%
#2300
0%
#2310
b100 j
b10011111 a
b100 Z
b1010010 O
b101 x
1*
b101 u
b101 r
b101 o
b100 H
1%
#2320
0%
#2330
b101 H
b110 o
1-
b110 r
b110 u
0+
b110 x
b10100100 O
b101 Z
b111111 a
b1001 j
1%
#2340
0%
#2350
b10011 j
b1111110 a
b110 Z
b1001001 O
b111 x
b111 u
b111 r
0,
b111 o
0-
b110 H
1%
#2360
0%
#2370
b111 H
b0 o
1-
b0 r
b0 u
1+
b0 x
b10010010 O
b111 Z
b11111100 a
b100111 j
1%
#2380
0%
#2390
bx :
b1000 ;
b10111100 3
b10111100 9
b100 <
b10100110 1
b10100110 >
b10100110 m
b1 G
b10100110 ?
b1 F
b1001111 j
b11111001 a
b0 Z
b100101 O
b1 x
0*
b1 u
b1 r
1,
b1 o
0-
12
b1000 H
1%
b10100110 $
b10100110 4
b10100110 =
b10100110 y
#2400
0%
#2410
b1001 H
b10 o
b10 r
0,
b10 u
b10 x
1*
b1001010 O
b1 Z
b11110011 a
b10011110 j
1%
#2420
0%
#2430
b111101 j
b11100111 a
b10 Z
b10010100 O
b11 x
0*
b11 u
b11 r
1,
b11 o
1-
b1010 H
1%
#2440
0%
#2450
b1011 H
b100 o
0-
b100 r
b100 u
b100 x
b101001 O
b11 Z
b11001111 a
b1111010 j
1%
#2460
0%
#2470
b11110100 j
b10011111 a
b100 Z
b1010010 O
b101 x
1*
b101 u
b101 r
b101 o
b1100 H
1%
#2480
0%
#2490
b1101 H
b110 o
1-
b110 r
b110 u
0+
b110 x
b10100100 O
b101 Z
b111111 a
b11101001 j
1%
#2500
0%
#2510
b11010011 j
b1111110 a
b110 Z
b1001001 O
b111 x
b111 u
b111 r
0,
b111 o
0-
b1110 H
1%
#2520
0%
#2530
b1111 H
b0 o
1-
b0 r
b0 u
1+
b0 x
b10010010 O
b111 Z
b11111100 a
b10100111 j
1%
#2540
0%
#2550
b1001111 j
b11111001 a
b0 Z
b100101 O
b1 x
0*
b1 u
b1 r
1,
b1 o
b10100110 n
02
b0 H
1%
#2560
0%
#2570
b1 H
b10 o
0-
b10 r
0,
b10 u
b10 x
1*
b1001011 O
b1 Z
b11110011 a
b10011110 j
1%
#2580
0%
#2590
b111101 j
b11100111 a
b10 Z
b10010110 O
b11 x
0*
b11 u
b11 r
1,
b11 o
1-
b10 H
1%
#2600
0%
#2610
b11 H
b100 o
0-
b100 r
b100 u
b100 x
b101101 O
b11 Z
b11001111 a
b1111010 j
1%
#2620
0%
#2630
b11110100 j
b10011111 a
b100 Z
b1011010 O
b101 x
1*
b101 u
b101 r
b101 o
b100 H
1%
#2640
0%
#2650
b101 H
b110 o
1-
b110 r
b110 u
0+
b110 x
b10110100 O
b101 Z
b111111 a
b11101001 j
1%
#2660
0%
#2670
b11010011 j
b1111110 a
b110 Z
b1101001 O
b111 x
b111 u
b111 r
0,
b111 o
b110 H
1%
#2680
0%
#2690
b111 H
b0 o
0-
b0 r
b0 u
1+
b0 x
b11010011 O
b111 Z
b11111100 a
b10100111 j
1%
#2700
0%
#2710
b10000 ;
b111001 0
b111001 @
b111001 p
b10 G
bx 3
bx 9
b1000 <
b111001 A
b10 F
b1001111 j
b11111001 a
b0 Z
b10100110 O
b1 x
0*
b1 u
b1 r
1,
b1 o
1-
12
b1000 H
1%
b111001 $
b111001 4
b111001 =
b111001 y
#2720
0%
#2730
b1001 H
b10 o
0-
b10 r
0,
b10 u
b10 x
1*
b1001101 O
b1 Z
b11110011 a
b10011110 j
1%
#2740
0%
#2750
b111101 j
b11100111 a
b10 Z
b10011010 O
b11 x
0*
b11 u
b11 r
1,
b11 o
1-
b1010 H
1%
#2760
0%
#2770
b1011 H
b100 o
0-
b100 r
b100 u
b100 x
b110101 O
b11 Z
b11001111 a
b1111010 j
1%
#2780
0%
#2790
b11110100 j
b10011111 a
b100 Z
b1101010 O
b101 x
1*
b101 u
b101 r
b101 o
b1100 H
1%
#2800
0%
#2810
b1101 H
b110 o
1-
b110 r
b110 u
0+
b110 x
b11010100 O
b101 Z
b111111 a
b11101001 j
1%
#2820
0%
#2830
b11010011 j
b1111110 a
b110 Z
b10101001 O
b111 x
b111 u
b111 r
0,
b111 o
b1110 H
1%
#2840
0%
#2850
b1111 H
b0 o
0-
b0 r
b0 u
1+
b0 x
b1010011 O
b111 Z
b11111100 a
b10100111 j
1%
#2860
0%
#2870
b1001111 j
b11111001 a
b0 Z
b10100110 O
b1 x
0*
b1 u
b1 r
b111001 q
b1 o
1-
02
b0 H
1%
#2880
0%
#2890
b1 H
b10 o
0-
b10 r
b10 u
b10 x
1*
b1001101 O
b1 Z
b11110 Y
b11110011 a
b10011110 j
1%
#2900
0%
#2910
b111101 j
b11100111 a
b10 Z
b10011010 O
b11 x
0*
b11 u
b11 r
1,
b11 o
1-
b10 H
1%
#2920
0%
#2930
b11 H
b100 o
0-
b100 r
b100 u
b100 x
b110101 O
b11 Z
b11001111 a
b1111010 j
1%
#2940
0%
#2950
b11110100 j
b10011111 a
b100 Z
b1101010 O
b101 x
1*
b101 u
b101 r
b101 o
b100 H
1%
#2960
0%
#2970
b101 H
b110 o
1-
b110 r
0,
b110 u
0+
b110 x
b11010100 O
b101 Z
b111111 a
b11101001 j
1%
#2980
0%
#2990
b11010011 j
b1111110 a
b110 Z
b11100 Y
b10101001 O
b111 x
b111 u
b111 r
b111 o
b110 H
1%
#3000
0%
#3010
b111 H
b0 o
0-
b0 r
1,
b0 u
1+
b0 x
b1010011 O
b111 Z
b11111100 a
b10100111 j
1%
#3020
0%
#3030
b10 ;
b10000 <
b10101000 /
b10101000 B
b10101000 s
b11 G
b10101000 C
b11 F
b1001111 j
b11111001 a
b0 Z
b111001 S
b10100110 O
b1 x
0*
b1 u
b1 r
0,
b1 o
1-
12
b1000 H
1%
b10101000 $
b10101000 4
b10101000 =
b10101000 y
#3040
0%
#3050
b10 ;
b1001 H
b10 o
0-
b10 r
b10 u
b10 x
1*
b1001101 O
b1 Z
b111001 (
b111001 7
b111001 R
b11110011 a
b10011110 j
1%
#3060
0%
#3070
b111101 j
b11100111 a
b10 Z
b10011010 O
b11 x
0*
b11 u
b11 r
1,
b11 o
1-
b1010 H
1%
#3080
0%
#3090
b1011 H
b100 o
0-
b100 r
b100 u
b100 x
b110101 O
b11 Z
b11001111 a
b1111010 j
1%
#3100
0%
#3110
b11110100 j
b10011111 a
b100 Z
b1101010 O
b101 x
1*
b101 u
b101 r
b101 o
b1100 H
1%
#3120
0%
#3130
b1101 H
b110 o
1-
b110 r
0,
b110 u
0+
b110 x
b11010100 O
b101 Z
b111111 a
b11101001 j
1%
#3140
0%
#3150
b11010011 j
b1111110 a
b110 Z
b10101001 O
b111 x
b111 u
b111 r
b111 o
b1110 H
1%
#3160
0%
#3170
b1111 H
b0 o
0-
b0 r
1,
b0 u
1+
b0 x
b1010011 O
b111 Z
b11111100 a
b10100111 j
1%
#3180
0%
#3190
b1001111 j
b11111001 a
b0 Z
b10100110 O
b1 x
0*
b1 u
b10101000 t
b1 r
0,
b1 o
1-
02
b0 H
1%
#3200
0%
#3210
b1 H
b10 o
0-
b10 r
b10 u
0+
b10 x
1*
b1001101 O
b1 Z
b11110011 a
b10011110 j
1%
#3220
0%
#3230
b111101 j
b11100110 a
b10 Z
b10011010 O
b11 x
0*
b11 u
1+
b11 r
1,
b11 o
1-
b10 H
1%
#3240
0%
#3250
b11 H
b100 o
0-
b100 r
b100 u
0+
b100 x
b110101 O
b11 Z
b11001101 a
b1111010 j
1%
#3260
0%
#3270
b11110100 j
b10011010 a
b100 Z
b1101010 O
b101 x
1*
b101 u
1+
b101 r
b101 o
b100 H
1%
#3280
0%
#3290
b101 H
b110 o
1-
b110 r
0,
b110 u
0+
b110 x
b11010100 O
b101 Z
b110101 a
b11101001 j
1%
#3300
0%
#3310
b11010011 j
b1101010 a
b110 Z
b10101001 O
b111 x
b111 u
b111 r
b111 o
b110 H
1%
#3320
0%
#3330
b111 H
b0 o
0-
b0 r
1,
b0 u
b0 x
b1010011 O
b111 Z
b11010100 a
b10100111 j
1%
#3340
0%
#3350
b111001 :
b100 ;
b11111001 .
b11111001 D
b11111001 v
b0 G
b10 <
b11111001 E
b0 F
b1001111 j
b10101000 a
b0 Z
b10100110 O
b1 x
0*
b1 u
1+
b1 r
0,
b1 o
1-
12
b1000 H
1%
b11111001 $
b11111001 4
b11111001 =
b11111001 y
#3360
0%
#3370
b1001 H
b10 o
0-
b10 r
b10 u
0+
b10 x
1*
b1001101 O
b1 Z
b1010001 a
b10011110 j
1%
#3380
0%
#3390
b111101 j
b10100010 a
b10 Z
b10011010 O
b11 x
0*
b11 u
1+
b11 r
1,
b11 o
1-
b1010 H
1%
#3400
0%
#3410
b1011 H
b100 o
0-
b100 r
b100 u
0+
b100 x
b110101 O
b11 Z
b1000101 a
b1111010 j
1%
#3420
0%
#3430
b11110100 j
b10001010 a
b100 Z
b1101010 O
b101 x
1*
b101 u
1+
b101 r
b101 o
b1100 H
1%
#3440
0%
#3450
b1101 H
b110 o
1-
b110 r
0,
b110 u
0+
b110 x
b11010100 O
b101 Z
b10101 a
b11101001 j
1%
#3460
0%
#3470
b11010011 j
b101010 a
b110 Z
b10101001 O
b111 x
b111 u
b111 r
b111 o
b1110 H
1%
#3480
0%
#3490
b1111 H
b0 o
0-
b0 r
1,
b0 u
b0 x
b1010011 O
b111 Z
b1010100 a
b10100111 j
1%
#3500
0%
#3510
b1001111 j
b10101000 a
b0 Z
b10100110 O
b1 x
b11111001 w
b1 u
1+
b1 r
0,
b1 o
1-
02
b0 H
1%
#3520
0%
#3530
b1 H
b10 o
0-
b10 r
b10 u
0+
b10 x
b1001101 O
b1 Z
b1010001 a
b10011111 j
1%
#3540
0%
#3550
b111111 j
b10100010 a
b10 Z
b10011010 O
b11 x
b11 u
1+
b11 r
1,
b11 o
1-
b10 H
1%
#3560
0%
#3570
b11 H
b100 o
0-
b100 r
b100 u
0+
b100 x
b110101 O
b11 Z
b1000101 a
b1111111 j
1%
#3580
0%
#3590
b11111111 j
b10001010 a
b100 Z
b1101010 O
b101 x
b101 u
1+
b101 r
b101 o
b100 H
1%
#3600
0%
#3610
b101 H
b110 o
1-
b110 r
0,
b110 u
0+
b110 x
0*
b11010100 O
b101 Z
b10101 a
1%
#3620
0%
#3630
b11111110 j
b101010 a
b110 Z
b10101001 O
b111 x
b111 u
b111 r
b111 o
b110 H
1%
#3640
0%
#3650
b111 H
b0 o
0-
b0 r
1,
b0 u
b0 x
1*
b1010011 O
b111 Z
b1010100 a
b11111100 j
1%
#3660
0%
#3670
bx :
b1000 ;
b111001 3
b111001 9
b100 <
b1001111 1
b1001111 >
b1001111 m
b1 G
b1001111 ?
b1 F
b11111001 j
b10101000 a
b0 Z
b10100110 O
b1 x
b1 u
1+
b1 r
0,
b1 o
1-
12
b1000 H
1%
b1001111 $
b1001111 4
b1001111 =
b1001111 y
#3680
0%
#3690
b1001 H
b10 o
0-
b10 r
b10 u
0+
b10 x
b1001101 O
b1 Z
b1010001 a
b11110011 j
1%
#3700
0%
#3710
b11100111 j
b10100010 a
b10 Z
b10011010 O
b11 x
b11 u
1+
b11 r
1,
b11 o
1-
b1010 H
1%
#3720
0%
#3730
b1011 H
b100 o
0-
b100 r
b100 u
0+
b100 x
b110101 O
b11 Z
b1000101 a
b11001111 j
1%
#3740
0%
#3750
b10011111 j
b10001010 a
b100 Z
b1101010 O
b101 x
b101 u
1+
b101 r
b101 o
b1100 H
1%
#3760
0%
#3770
b1101 H
b110 o
1-
b110 r
0,
b110 u
0+
b110 x
0*
b11010100 O
b101 Z
b10101 a
b111111 j
1%
#3780
0%
#3790
b1111110 j
b101010 a
b110 Z
b10101001 O
b111 x
b111 u
b111 r
b111 o
b1110 H
1%
#3800
0%
#3810
b1111 H
b0 o
0-
b0 r
1,
b0 u
b0 x
1*
b1010011 O
b111 Z
b1010100 a
b11111100 j
1%
#3820
0%
#3830
b11111001 j
b10101000 a
b0 Z
b10100110 O
b1 x
b1 u
1+
b1 r
0,
b1 o
b1001111 n
02
b0 H
1%
#3840
0%
#3850
b1 H
b10 o
1-
b10 r
b10 u
0+
b10 x
b1001100 O
b1 Z
b1010001 a
b11110011 j
1%
#3860
0%
#3870
b11100111 j
b10100010 a
b10 Z
b10011001 O
b11 x
b11 u
1+
b11 r
1,
b11 o
0-
b10 H
1%
#3880
0%
#3890
b11 H
b100 o
b100 r
b100 u
0+
b100 x
b110010 O
b11 Z
b1000101 a
b11001111 j
1%
#3900
0%
#3910
b10011111 j
b10001010 a
b100 Z
b1100100 O
b101 x
b101 u
1+
b101 r
b101 o
1-
b100 H
1%
#3920
0%
#3930
b101 H
b110 o
b110 r
0,
b110 u
0+
b110 x
0*
b11001001 O
b101 Z
b10101 a
b111111 j
1%
#3940
0%
#3950
b1111110 j
b101010 a
b110 Z
b10010011 O
b111 x
b111 u
b111 r
b111 o
b110 H
1%
#3960
0%
