miscelaneos/pcie/simulation.vcd
$date
	Tue May 29 21:56:08 2018
$end
$version
	Icarus Verilog
$end
$timescale
	100ps
$end
$scope module BUF $end
$var wire 1 ! A $end
$var wire 1 " Y $end
$upscope $end
$scope module DFF $end
$var wire 1 # C $end
$var wire 1 $ D $end
$var reg 1 % Q $end
$upscope $end
$scope module DFFSR $end
$var wire 1 & C $end
$var wire 1 ' D $end
$var wire 1 ( R $end
$var wire 1 ) S $end
$var reg 1 * Q $end
$upscope $end
$scope module NAND $end
$var wire 1 + A $end
$var wire 1 , B $end
$var wire 1 - Y $end
$upscope $end
$scope module NOR $end
$var wire 1 . A $end
$var wire 1 / B $end
$var wire 1 0 Y $end
$upscope $end
$scope module NOT $end
$var wire 1 1 A $end
$var wire 1 2 Y $end
$upscope $end
$scope module pruebas_pcie $end
$var wire 1 3 reset $end
$var wire 1 4 Valid $end
$var wire 1 5 RESET $end
$var wire 8 6 DATA_out [7:0] $end
$var wire 8 7 DATA [7:0] $end
$var wire 4 8 CONTROL [3:0] $end
$var wire 1 9 CLK $end
$scope module PCIETest $end
$var wire 1 3 reset $end
$var wire 8 : paralelo3 [7:0] $end
$var wire 8 ; paralelo2 [7:0] $end
$var wire 8 < paralelo1 [7:0] $end
$var wire 8 = paralelo0 [7:0] $end
$var wire 1 > dataserial3 $end
$var wire 1 ? dataserial2 $end
$var wire 1 @ dataserial1 $end
$var wire 1 A dataserial0 $end
$var wire 8 B data3 [7:0] $end
$var wire 8 C data2 [7:0] $end
$var wire 8 D data1 [7:0] $end
$var wire 8 E data0 [7:0] $end
$var wire 1 F clk250 $end
$var wire 1 G VALID_OUT $end
$var wire 1 H VALID $end
$var wire 1 5 RESET $end
$var wire 8 I OUTSTRIPING [7:0] $end
$var wire 8 J OUTMUX [7:0] $end
$var wire 8 K DATA_out [7:0] $end
$var wire 8 L DATA [7:0] $end
$var wire 4 M CONTROL [3:0] $end
$var wire 1 9 CLK $end
$scope module byteRX $end
$var wire 1 H valid $end
$var wire 1 5 reset $end
$var wire 8 N data_in3 [7:0] $end
$var wire 8 O data_in2 [7:0] $end
$var wire 8 P data_in1 [7:0] $end
$var wire 8 Q data_in0 [7:0] $end
$var wire 1 F clk $end
$var reg 8 R data [7:0] $end
$var reg 8 S data_next [7:0] $end
$var reg 8 T next_state [7:0] $end
$var reg 8 U state [7:0] $end
$upscope $end
$scope module byteTX $end
$var wire 1 H valid $end
$var wire 1 5 reset $end
$var wire 8 V data [7:0] $end
$var wire 1 F clk $end
$var reg 8 W data_out0 [7:0] $end
$var reg 8 X data_out0_next [7:0] $end
$var reg 8 Y data_out1 [7:0] $end
$var reg 8 Z data_out1_next [7:0] $end
$var reg 8 [ data_out2 [7:0] $end
$var reg 8 \ data_out2_next [7:0] $end
$var reg 8 ] data_out3 [7:0] $end
$var reg 8 ^ data_out3_next [7:0] $end
$var reg 3 _ next_state [2:0] $end
$var reg 3 ` state [2:0] $end
$upscope $end
$scope module clkbyte $end
$var wire 1 3 RESET $end
$var wire 1 9 CLK $end
$var reg 1 F CLK_250hz $end
$var reg 5 a counter [4:0] $end
$upscope $end
$scope module mux $end
$var wire 1 F CLK $end
$var wire 8 b Tx_Buffer [7:0] $end
$var wire 4 c CONTROL [3:0] $end
$var reg 8 d OUT [7:0] $end
$var reg 1 H VALID $end
$upscope $end
$scope module muxRX $end
$var wire 1 F CLK $end
$var wire 8 e Rx_buffer [7:0] $end
$var wire 1 H VALID $end
$var reg 8 f DATA [7:0] $end
$var reg 1 G VALID_OUT $end
$upscope $end
$scope module parallel0 $end
$var wire 1 5 RESET $end
$var wire 1 A DATA_IN $end
$var wire 1 9 CLK $end
$var reg 8 g DATA_OUT [7:0] $end
$var reg 8 h DataOut_next [7:0] $end
$var reg 1 i Start $end
$var reg 1 j Valid $end
$var reg 1 k Valid_neg $end
$var reg 1 l Valid_next $end
$var reg 8 m check [7:0] $end
$var reg 7 n rBuffer [6:0] $end
$var reg 3 o rCurrentState [2:0] $end
$upscope $end
$scope module parallel1 $end
$var wire 1 5 RESET $end
$var wire 1 @ DATA_IN $end
$var wire 1 9 CLK $end
$var reg 8 p DATA_OUT [7:0] $end
$var reg 8 q DataOut_next [7:0] $end
$var reg 1 r Start $end
$var reg 1 s Valid $end
$var reg 1 t Valid_neg $end
$var reg 1 u Valid_next $end
$var reg 8 v check [7:0] $end
$var reg 7 w rBuffer [6:0] $end
$var reg 3 x rCurrentState [2:0] $end
$upscope $end
$scope module parallel2 $end
$var wire 1 5 RESET $end
$var wire 1 ? DATA_IN $end
$var wire 1 9 CLK $end
$var reg 8 y DATA_OUT [7:0] $end
$var reg 8 z DataOut_next [7:0] $end
$var reg 1 { Start $end
$var reg 1 | Valid $end
$var reg 1 } Valid_neg $end
$var reg 1 ~ Valid_next $end
$var reg 8 !" check [7:0] $end
$var reg 7 "" rBuffer [6:0] $end
$var reg 3 #" rCurrentState [2:0] $end
$upscope $end
$scope module parallel3 $end
$var wire 1 5 RESET $end
$var wire 1 > DATA_IN $end
$var wire 1 9 CLK $end
$var reg 8 $" DATA_OUT [7:0] $end
$var reg 8 %" DataOut_next [7:0] $end
$var reg 1 &" Start $end
$var reg 1 '" Valid $end
$var reg 1 (" Valid_neg $end
$var reg 1 )" Valid_next $end
$var reg 8 *" check [7:0] $end
$var reg 7 +" rBuffer [6:0] $end
$var reg 3 ," rCurrentState [2:0] $end
$upscope $end
$scope module serial0 $end
$var wire 8 -" DATA_IN [7:0] $end
$var wire 1 H Valid $end
$var wire 1 5 RESET $end
$var wire 1 9 CLK $end
$var reg 1 A DATA_OUT $end
$var reg 8 ." rBuffer [7:0] $end
$var reg 3 /" rCurrentState [2:0] $end
$upscope $end
$scope module serial1 $end
$var wire 8 0" DATA_IN [7:0] $end
$var wire 1 H Valid $end
$var wire 1 5 RESET $end
$var wire 1 9 CLK $end
$var reg 1 @ DATA_OUT $end
$var reg 8 1" rBuffer [7:0] $end
$var reg 3 2" rCurrentState [2:0] $end
$upscope $end
$scope module serial2 $end
$var wire 8 3" DATA_IN [7:0] $end
$var wire 1 H Valid $end
$var wire 1 5 RESET $end
$var wire 1 9 CLK $end
$var reg 1 ? DATA_OUT $end
$var reg 8 4" rBuffer [7:0] $end
$var reg 3 5" rCurrentState [2:0] $end
$upscope $end
$scope module serial3 $end
$var wire 8 6" DATA_IN [7:0] $end
$var wire 1 H Valid $end
$var wire 1 5 RESET $end
$var wire 1 9 CLK $end
$var reg 1 > DATA_OUT $end
$var reg 8 7" rBuffer [7:0] $end
$var reg 3 8" rCurrentState [2:0] $end
$upscope $end
$upscope $end
$scope module probador $end
$var reg 1 9 CLK $end
$var reg 4 9" CONTROL [3:0] $end
$var reg 8 :" DATA [7:0] $end
$var reg 1 5 RESET $end
$var reg 1 4 Valid $end
$var reg 1 3 reset $end
$upscope $end
$upscope $end
$enddefinitions $end
#0
$dumpvars
b0 :"
bx 9"
bx 8"
bx 7"
bx 6"
bx 5"
bx 4"
bx 3"
bx 2"
bx 1"
bx 0"
bx /"
bx ."
bx -"
bx ,"
bx +"
bx *"
x)"
x("
x'"
x&"
bx %"
bx $"
bx #"
bx ""
bx !"
x~
x}
x|
x{
bx z
bx y
bx x
bx w
bx v
xu
xt
xs
xr
bx q
bx p
bx o
bx n
bx m
xl
xk
xj
xi
bx h
bx g
bx f
bx e
bx d
bx c
b0 b
bx a
bx `
bx _
bx ^
bx ]
bx \
bx [
bx Z
bx Y
bx X
bx W
bx V
bx U
bx T
bx S
bx R
bx Q
bx P
bx O
bx N
bx M
b0 L
bx K
bx J
bx I
xH
xG
xF
bx E
bx D
bx C
bx B
xA
x@
x?
x>
bx =
bx <
bx ;
bx :
09
bx 8
b0 7
bx 6
15
x4
13
z2
z1
x0
z/
z.
x-
z,
z+
x*
z)
z(
z'
z&
x%
z$
z#
z"
z!
$end
#10
0i
1k
0l
0r
1t
0u
0{
1}
0~
0&"
1("
0)"
0F
b0 a
b0 /"
b0 2"
b0 5"
b0 8"
b0 o
0j
b0 m
b0 x
0s
b0 v
b0 #"
0|
b0 !"
b0 ,"
0'"
b0 *"
19
#20
09
#30
19
#40
09
#50
19
#60
09
#70
19
#80
09
#90
19
#100
09
#110
19
#120
09
#130
19
#140
09
#150
19
#160
09
#170
19
#180
09
#190
19
#200
09
#210
19
#220
09
#230
19
#240
09
#250
19
#260
09
#270
19
#280
09
#290
19
#300
09
#310
19
#320
09
03
#330
b1 a
19
#340
09
#350
b10 a
19
#360
09
#370
b11 a
19
#380
09
#390
b100 a
19
#400
09
#410
b101 a
19
#420
09
#430
b110 a
19
#440
09
#450
b111 a
19
#460
09
#470
b0 ^
b0 \
b0 Z
b0 X
b0 S
b10 T
b0 J
b0 V
b0 d
b0 B
b0 ]
b0 6"
b0 C
b0 [
b0 3"
b0 D
b0 Y
b0 0"
b0 E
b0 W
b0 -"
b0 _
b0 `
b0 I
b0 R
b0 e
b10 U
1F
b1000 a
19
#480
09
#490
b1001 a
19
#500
09
#510
b1010 a
19
#520
09
#530
b1011 a
19
#540
09
#550
b1100 a
19
#560
09
#570
b1101 a
19
#580
09
#590
b1110 a
19
#600
09
#610
b1111 a
19
#620
09
#630
0F
b0 a
19
#640
09
05
#650
b1 a
b0x m
b0x v
b0x !"
b0x *"
19
#660
09
#670
b0xx *"
b0xx !"
b0xx v
b0xx m
b10 a
19
#680
09
#690
b11 a
b0xxx m
b0xxx v
b0xxx !"
b0xxx *"
19
#700
09
#710
b0xxxx *"
b0xxxx !"
b0xxxx v
b0xxxx m
b100 a
19
#720
09
#730
b101 a
b0xxxxx m
b0xxxxx v
b0xxxxx !"
b0xxxxx *"
19
#740
09
#750
b0xxxxxx *"
b0xxxxxx !"
b0xxxxxx v
b0xxxxxx m
b110 a
19
#760
09
#770
b111 a
b0xxxxxxx m
b0xxxxxxx v
b0xxxxxxx !"
b0xxxxxxx *"
19
#780
09
#790
bx *"
bx !"
bx v
bx m
1F
b1000 a
19
#800
09
#810
b1001 a
19
#820
09
#830
b1010 a
19
#840
09
#850
b1011 a
19
#860
09
#870
b1100 a
19
#880
09
#890
b1101 a
19
#900
09
#910
b1110 a
19
#920
09
#930
b1111 a
19
#940
09
#950
0F
b0 a
19
#960
09
#970
b1 a
19
#980
09
#990
b10 a
19
#1000
09
#1010
b11 a
19
#1020
09
#1030
b100 a
19
#1040
09
#1050
b101 a
19
#1060
09
#1070
b110 a
19
#1080
09
#1090
b111 a
19
#1100
09
#1110
b10111100 J
b10111100 V
b10111100 d
bx S
b100 T
1H
1F
b1000 a
19
b0 8
b0 M
b0 c
b0 9"
#1120
09
#1130
b1001 a
b1 /"
0A
b0 ."
b1 2"
0@
b0 1"
b1 5"
0?
b0 4"
b1 8"
0>
b0 7"
19
#1140
09
#1150
bx0 *"
bx0 !"
bx0 v
bx0 m
b10 8"
b10 5"
b10 2"
b10 /"
b1010 a
19
#1160
09
#1170
b1011 a
b11 /"
b11 2"
b11 5"
b11 8"
bx00 m
bx00 v
bx00 !"
bx00 *"
19
#1180
09
#1190
bx000 *"
bx000 !"
bx000 v
bx000 m
b100 8"
b100 5"
b100 2"
b100 /"
b1100 a
19
#1200
09
#1210
b1101 a
b101 /"
b101 2"
b101 5"
b101 8"
bx0000 m
bx0000 v
bx0000 !"
bx0000 *"
19
#1220
09
#1230
bx00000 *"
bx00000 !"
bx00000 v
bx00000 m
b110 8"
b110 5"
b110 2"
b110 /"
b1110 a
19
#1240
09
#1250
b1111 a
b111 /"
b111 2"
b111 5"
b111 8"
bx000000 m
bx000000 v
bx000000 !"
bx000000 *"
19
#1260
09
#1270
bx0000000 *"
bx0000000 !"
bx0000000 v
bx0000000 m
b0 8"
b0 5"
b0 2"
b0 /"
0F
b0 a
19
#1280
09
#1290
b1 a
b1 /"
b1 2"
b1 5"
b1 8"
b0 m
b0 v
b0 !"
b0 *"
19
#1300
09
#1310
b10 8"
b10 5"
b10 2"
b10 /"
b10 a
19
#1320
09
#1330
b11 a
b11 /"
b11 2"
b11 5"
b11 8"
19
#1340
09
#1350
b100 8"
b100 5"
b100 2"
b100 /"
b100 a
19
#1360
09
#1370
b101 a
b101 /"
b101 2"
b101 5"
b101 8"
19
#1380
09
#1390
b110 8"
b110 5"
b110 2"
b110 /"
b110 a
19
#1400
09
#1410
b111 a
b111 /"
b111 2"
b111 5"
b111 8"
19
#1420
09
#1430
b10111100 E
b10111100 W
b10111100 -"
b1000 T
b1 `
b0 6
b0 K
b0 f
1G
bx I
bx R
bx e
b100 U
b10111100 X
b1 _
b0 8"
b0 5"
b0 2"
b0 /"
1F
b1000 a
19
#1440
09
#1450
b1001 a
b1 /"
1A
b10111100 ."
b1 2"
b1 5"
b1 8"
19
#1460
09
#1470
b1 m
b10 8"
b10 5"
b10 2"
b10 /"
0A
b1010 a
19
#1480
09
#1490
b1011 a
b11 /"
1A
b11 2"
b11 5"
b11 8"
b10 m
19
#1500
09
#1510
b101 m
b100 8"
b100 5"
b100 2"
b100 /"
b1100 a
19
#1520
09
#1530
b1101 a
b101 /"
b101 2"
b101 5"
b101 8"
b1011 m
19
#1540
09
#1550
b10111 m
b110 8"
b110 5"
b110 2"
b110 /"
b1110 a
19
#1560
09
#1570
b1111 a
b111 /"
0A
b111 2"
b111 5"
b111 8"
b101111 m
19
#1580
09
#1590
b1011110 m
b0 8"
b0 5"
b0 2"
b0 /"
0F
b0 a
19
#1600
09
#1610
b10111100 h
1i
1l
b1 a
b1 /"
1A
b1 2"
b1 5"
b1 8"
b10111100 m
19
#1620
09
#1630
0i
0k
b1000 T
b1 o
b1xxxxxx n
1j
b10111100 =
b10111100 Q
b10111100 g
b10 8"
b10 5"
b10 2"
b10 /"
0A
b10 a
19
#1640
09
#1650
b11 a
b11 /"
1A
b11 2"
b11 5"
b11 8"
b10 o
b10xxxxx n
19
#1660
09
#1670
b11 o
b101xxxx n
b100 8"
b100 5"
b100 2"
b100 /"
b100 a
19
#1680
09
#1690
b101 a
b101 /"
b101 2"
b101 5"
b101 8"
b100 o
b1011xxx n
19
#1700
09
#1710
b101 o
b10111xx n
b110 8"
b110 5"
b110 2"
b110 /"
b110 a
19
#1720
09
#1730
b111 a
b111 /"
0A
b111 2"
b111 5"
b111 8"
b110 o
b101111x n
19
#1740
09
#1750
b10111100 D
b10111100 Y
b10111100 0"
b10000 T
b10 `
b10111100 Z
b1000 U
bx 6
bx K
bx f
b10 _
b111 o
b1011110 n
b0 8"
b0 5"
b0 2"
b0 /"
1F
b1000 a
19
#1760
09
#1770
b1001 a
b1 /"
1A
b1 2"
1@
b10111100 1"
b1 5"
b1 8"
b0 o
19
#1780
09
#1790
b1 v
b1 o
b10 8"
b10 5"
b10 2"
0@
b10 /"
0A
b1010 a
19
#1800
09
#1810
b1011 a
b11 /"
1A
b11 2"
1@
b11 5"
b11 8"
b10 o
b10 v
19
#1820
09
#1830
b101 v
b11 o
b100 8"
b100 5"
b100 2"
b100 /"
b1100 a
19
#1840
09
#1850
b1101 a
b101 /"
b101 2"
b101 5"
b101 8"
b100 o
b1011 v
19
#1860
09
#1870
b10111 v
b101 o
b110 8"
b110 5"
b110 2"
b110 /"
b1110 a
19
#1880
09
#1890
b1111 a
b111 /"
0A
b111 2"
0@
b111 5"
b111 8"
b110 o
b101111 v
19
#1900
09
#1910
b1011110 v
b111 o
b0 8"
b0 5"
b0 2"
b0 /"
0F
b0 a
19
#1920
09
#1930
b10111100 q
1r
1u
b1 a
b1 /"
1A
b1 2"
1@
b1 5"
b1 8"
b0 o
b10111100 v
19
#1940
09
#1950
0r
0t
b10000 T
b1 x
b1xxxxxx w
1s
b10111100 <
b10111100 P
b10111100 p
b1 o
b10 8"
b10 5"
b10 2"
0@
b10 /"
0A
b10 a
19
#1960
09
#1970
b11 a
b11 /"
1A
b11 2"
1@
b11 5"
b11 8"
b10 o
b10 x
b10xxxxx w
19
#1980
09
#1990
b11 x
b101xxxx w
b11 o
b100 8"
b100 5"
b100 2"
b100 /"
b100 a
19
#2000
09
#2010
b101 a
b101 /"
b101 2"
b101 5"
b101 8"
b100 o
b100 x
b1011xxx w
19
#2020
09
#2030
b101 x
b10111xx w
b101 o
b110 8"
b110 5"
b110 2"
b110 /"
b110 a
19
#2040
09
#2050
b111 a
b111 /"
0A
b111 2"
0@
b111 5"
b111 8"
b110 o
b110 x
b101111x w
19
#2060
09
#2070
b10111100 C
b10111100 [
b10111100 3"
b10111100 S
b10 T
b11 `
b10000 U
b10111100 \
b11 _
b111 x
b1011110 w
b111 o
b0 8"
b0 5"
b0 2"
b0 /"
1F
b1000 a
19
#2080
09
#2090
b1001 a
b1 /"
1A
b1 2"
1@
b1 5"
1?
b10111100 4"
b1 8"
b0 o
b0 x
19
#2100
09
#2110
b1 !"
b1 x
b1 o
b10 8"
b10 5"
0?
b10 2"
0@
b10 /"
0A
b1010 a
19
#2120
09
#2130
b1011 a
b11 /"
1A
b11 2"
1@
b11 5"
1?
b11 8"
b10 o
b10 x
b10 !"
19
#2140
09
#2150
b101 !"
b11 x
b11 o
b100 8"
b100 5"
b100 2"
b100 /"
b1100 a
19
#2160
09
#2170
b1101 a
b101 /"
b101 2"
b101 5"
b101 8"
b100 o
b100 x
b1011 !"
19
#2180
09
#2190
b10111 !"
b101 x
b101 o
b110 8"
b110 5"
b110 2"
b110 /"
b1110 a
19
#2200
09
#2210
b1111 a
b111 /"
0A
b111 2"
0@
b111 5"
0?
b111 8"
b110 o
b110 x
b101111 !"
19
#2220
09
#2230
b1011110 !"
b111 x
b111 o
b0 8"
b0 5"
b0 2"
b0 /"
0F
b0 a
19
#2240
09
#2250
b10111100 z
1{
1~
b1 a
b1 /"
1A
b1 2"
1@
b1 5"
1?
b1 8"
b0 o
b0 x
b10111100 !"
19
#2260
09
#2270
0{
0}
b10111100 S
b10 T
b1 #"
b1xxxxxx ""
1|
b10111100 ;
b10111100 O
b10111100 y
b1 x
b1 o
b10 8"
b10 5"
0?
b10 2"
0@
b10 /"
0A
b10 a
19
#2280
09
#2290
b11 a
b11 /"
1A
b11 2"
1@
b11 5"
1?
b11 8"
b10 o
b10 x
b10 #"
b10xxxxx ""
19
#2300
09
#2310
b11 #"
b101xxxx ""
b11 x
b11 o
b100 8"
b100 5"
b100 2"
b100 /"
b100 a
19
#2320
09
#2330
b101 a
b101 /"
b101 2"
b101 5"
b101 8"
b100 o
b100 x
b100 #"
b1011xxx ""
19
#2340
09
#2350
b101 #"
b10111xx ""
b101 x
b101 o
b110 8"
b110 5"
b110 2"
b110 /"
b110 a
19
#2360
09
#2370
b111 a
b111 /"
0A
b111 2"
0@
b111 5"
0?
b111 8"
b110 o
b110 x
b110 #"
b101111x ""
19
#2380
09
#2390
b10111100 B
b10111100 ]
b10111100 6"
b100 T
b0 `
b11110111 J
b11110111 V
b11110111 d
b10111100 ^
b10111100 I
b10111100 R
b10111100 e
b10 U
b0 _
b111 #"
b1011110 ""
b111 x
b111 o
b0 8"
b0 5"
b0 2"
b0 /"
1F
b1000 a
19
b1 8
b1 M
b1 c
b1 9"
#2400
09
#2410
b1001 a
b1 /"
1A
b1 2"
1@
b1 5"
1?
b1 8"
1>
b10111100 7"
b0 o
b0 x
b0 #"
19
#2420
09
#2430
b1 *"
b1 #"
b1 x
b1 o
b10 8"
0>
b10 5"
0?
b10 2"
0@
b10 /"
0A
b1010 a
19
#2440
09
#2450
b1011 a
b11 /"
1A
b11 2"
1@
b11 5"
1?
b11 8"
1>
b10 o
b10 x
b10 #"
b10 *"
19
#2460
09
#2470
b101 *"
b11 #"
b11 x
b11 o
b100 8"
b100 5"
b100 2"
b100 /"
b1100 a
19
#2480
09
#2490
b1101 a
b101 /"
b101 2"
b101 5"
b101 8"
b100 o
b100 x
b100 #"
b1011 *"
19
#2500
09
#2510
b10111 *"
b101 #"
b101 x
b101 o
b110 8"
b110 5"
b110 2"
b110 /"
b1110 a
19
#2520
09
#2530
b1111 a
b111 /"
0A
b111 2"
0@
b111 5"
0?
b111 8"
0>
b110 o
b110 x
b110 #"
b101111 *"
19
#2540
09
#2550
b1011110 *"
b111 #"
b111 x
b111 o
b0 8"
b0 5"
b0 2"
b0 /"
0F
b0 a
19
#2560
09
#2570
b10111100 %"
1&"
1)"
b1 a
b1 /"
1A
b1 2"
1@
b1 5"
1?
b1 8"
1>
b0 o
b0 x
b0 #"
b10111100 *"
19
#2580
09
#2590
0&"
0("
b100 T
b1 ,"
b1xxxxxx +"
1'"
b10111100 :
b10111100 N
b10111100 $"
b1 #"
b1 x
b1 o
b10 8"
0>
b10 5"
0?
b10 2"
0@
b10 /"
0A
b10 a
19
#2600
09
#2610
b11 a
b11 /"
1A
b11 2"
1@
b11 5"
1?
b11 8"
1>
b10 o
b10 x
b10 #"
b10 ,"
b10xxxxx +"
19
#2620
09
#2630
b11 ,"
b101xxxx +"
b11 #"
b11 x
b11 o
b100 8"
b100 5"
b100 2"
b100 /"
b100 a
19
#2640
09
#2650
b101 a
b101 /"
b101 2"
b101 5"
b101 8"
b100 o
b100 x
b100 #"
b100 ,"
b1011xxx +"
19
#2660
09
#2670
b101 ,"
b10111xx +"
b101 #"
b101 x
b101 o
b110 8"
b110 5"
b110 2"
b110 /"
b110 a
19
#2680
09
#2690
b111 a
b111 /"
0A
b111 2"
0@
b111 5"
0?
b111 8"
0>
b110 o
b110 x
b110 #"
b110 ,"
b101111x +"
19
#2700
09
#2710
b11110111 E
b11110111 W
b11110111 -"
b1000 T
b1 `
b10111100 6
b10111100 K
b10111100 f
b100 U
b11110111 X
b11100 J
b11100 V
b11100 d
b1 _
b111 ,"
b1011110 +"
b111 #"
b111 x
b111 o
b0 8"
b0 5"
b0 2"
b0 /"
1F
b1000 a
19
b10 8
b10 M
b10 c
b10 9"
#2720
09
#2730
b1001 a
b1 /"
1A
b11110111 ."
b1 2"
1@
b1 5"
1?
b1 8"
1>
b0 o
b0 x
b0 #"
b0 ,"
19
#2740
09
#2750
b1 ,"
b1 #"
b1 x
b1 o
b10 8"
0>
b10 5"
0?
b10 2"
0@
b10 /"
b1010 a
19
#2760
09
#2770
b1011 a
b11 /"
b11 2"
1@
b11 5"
1?
b11 8"
1>
b10 o
b1111110 n
b10 x
b10 #"
b10 ,"
19
#2780
09
#2790
b11 ,"
b11 #"
b11 x
b11 o
b100 8"
b100 5"
b100 2"
b100 /"
b1100 a
19
#2800
09
#2810
b1101 a
b101 /"
0A
b101 2"
b101 5"
b101 8"
b100 o
b100 x
b100 #"
b100 ,"
19
#2820
09
#2830
b101 ,"
b101 #"
b101 x
b101 o
b1111010 n
b110 8"
b110 5"
b110 2"
b110 /"
1A
b1110 a
19
#2840
09
#2850
b1111 a
b111 /"
b111 2"
0@
b111 5"
0?
b111 8"
0>
b110 o
b110 x
b110 #"
b110 ,"
19
#2860
09
#2870
b111 ,"
b111 #"
b111 x
b111 o
b1111011 n
b0 8"
b0 5"
b0 2"
b0 /"
0F
b0 a
19
#2880
09
#2890
b1 a
b1 /"
b1 2"
1@
b1 5"
1?
b1 8"
1>
b0 o
b11110111 h
b0 x
b0 #"
b0 ,"
19
#2900
09
#2910
b1000 T
b1 ,"
b1 #"
b1 x
b1 o
b11110111 =
b11110111 Q
b11110111 g
b10 8"
0>
b10 5"
0?
b10 2"
0@
b10 /"
b10 a
19
#2920
09
#2930
b11 a
b11 /"
b11 2"
1@
b11 5"
1?
b11 8"
1>
b10 o
b10 x
b10 #"
b10 ,"
19
#2940
09
#2950
b11 ,"
b11 #"
b11 x
b11 o
b100 8"
b100 5"
b100 2"
b100 /"
b100 a
19
#2960
09
#2970
b101 a
b101 /"
0A
b101 2"
b101 5"
b101 8"
b100 o
b100 x
b100 #"
b100 ,"
19
#2980
09
#2990
b101 ,"
b101 #"
b101 x
b101 o
b110 8"
b110 5"
b110 2"
b110 /"
1A
b110 a
19
#3000
09
#3010
b111 a
b111 /"
b111 2"
0@
b111 5"
0?
b111 8"
0>
b110 o
b110 x
b110 #"
b110 ,"
19
#3020
09
#3030
b11100 D
b11100 Y
b11100 0"
b10000 T
b10 `
b11111011 J
b11111011 V
b11111011 d
b11100 Z
b1000 U
b10 _
b111 ,"
b111 #"
b111 x
b111 o
b0 8"
b0 5"
b0 2"
b0 /"
1F
b1000 a
19
b11 8
b11 M
b11 c
b11 9"
#3040
09
#3050
b1001 a
b1 /"
b1 2"
b11100 1"
b1 5"
1?
b1 8"
1>
b0 o
b0 x
b0 #"
b0 ,"
19
#3060
09
#3070
b1 ,"
b1 #"
b1 x
b11110 w
b1 o
b10 8"
0>
b10 5"
0?
b10 2"
b10 /"
b1010 a
19
#3080
09
#3090
b1011 a
b11 /"
b11 2"
b11 5"
1?
b11 8"
1>
b10 o
b10 x
b10 #"
b10 ,"
19
#3100
09
#3110
b11 ,"
b11 #"
b11 x
b1110 w
b11 o
b100 8"
b100 5"
b100 2"
1@
b100 /"
b1100 a
19
#3120
09
#3130
b1101 a
b101 /"
0A
b101 2"
b101 5"
b101 8"
b100 o
b100 x
b100 #"
b100 ,"
19
#3140
09
#3150
b101 ,"
b101 #"
b101 x
b101 o
b110 8"
b110 5"
b110 2"
b110 /"
1A
b1110 a
19
#3160
09
#3170
b1111 a
b111 /"
b111 2"
0@
b111 5"
0?
b111 8"
0>
b110 o
b110 x
b110 #"
b110 ,"
19
#3180
09
#3190
b111 ,"
b111 #"
b111 x
b111 o
b0 8"
b0 5"
b0 2"
b0 /"
0F
b0 a
19
#3200
09
#3210
b1 a
b1 /"
b1 2"
b1 5"
1?
b1 8"
1>
b0 o
b0 x
b11100 q
b0 #"
b0 ,"
19
#3220
09
#3230
b10000 T
b1 ,"
b1 #"
b1 x
b11100 <
b11100 P
b11100 p
b1 o
b10 8"
0>
b10 5"
0?
b10 2"
b10 /"
b10 a
19
#3240
09
#3250
b11 a
b11 /"
b11 2"
b11 5"
1?
b11 8"
1>
b10 o
b10 x
b10 #"
b10 ,"
19
#3260
09
#3270
b11 ,"
b11 #"
b11 x
b11 o
b100 8"
b100 5"
b100 2"
1@
b100 /"
b100 a
19
#3280
09
#3290
b101 a
b101 /"
0A
b101 2"
b101 5"
b101 8"
b100 o
b100 x
b100 #"
b100 ,"
19
#3300
09
#3310
b101 ,"
b101 #"
b101 x
b101 o
b110 8"
b110 5"
b110 2"
b110 /"
1A
b110 a
19
#3320
09
#3330
b111 a
b111 /"
b111 2"
0@
b111 5"
0?
b111 8"
0>
b110 o
b110 x
b110 #"
b110 ,"
19
#3340
09
#3350
b11111011 C
b11111011 [
b11111011 3"
b11110111 S
b10 T
b11 `
b10000 U
b11111011 \
b1011100 J
b1011100 V
b1011100 d
b11 _
b111 ,"
b111 #"
b111 x
b111 o
b0 8"
b0 5"
b0 2"
b0 /"
1F
b1000 a
19
b100 8
b100 M
b100 c
b100 9"
#3360
09
#3370
b1001 a
b1 /"
b1 2"
b1 5"
1?
b11111011 4"
b1 8"
1>
b0 o
b0 x
b0 #"
b0 ,"
19
#3380
09
#3390
b1 ,"
b1 #"
b1 x
b1 o
b10 8"
0>
b10 5"
b10 2"
b10 /"
b1010 a
19
#3400
09
#3410
b1011 a
b11 /"
b11 2"
b11 5"
b11 8"
1>
b10 o
b10 x
b10 #"
b1111110 ""
b10 ,"
19
#3420
09
#3430
b11 ,"
b11 #"
b11 x
b11 o
b100 8"
b100 5"
b100 2"
1@
b100 /"
b1100 a
19
#3440
09
#3450
b1101 a
b101 /"
0A
b101 2"
b101 5"
b101 8"
b100 o
b100 x
b100 #"
b100 ,"
19
#3460
09
#3470
b101 ,"
b101 #"
b101 x
b101 o
b110 8"
b110 5"
0?
b110 2"
b110 /"
1A
b1110 a
19
#3480
09
#3490
b1111 a
b111 /"
b111 2"
0@
b111 5"
1?
b111 8"
0>
b110 o
b110 x
b110 #"
b1111100 ""
b110 ,"
19
#3500
09
#3510
b111 ,"
b111 #"
b1111101 ""
b111 x
b111 o
b0 8"
b0 5"
b0 2"
b0 /"
0F
b0 a
19
#3520
09
#3530
b1 a
b1 /"
b1 2"
b1 5"
b1 8"
1>
b0 o
b0 x
b0 #"
b11111011 z
b0 ,"
19
#3540
09
#3550
b11110111 S
b10 T
b1 ,"
b1 #"
b11111011 ;
b11111011 O
b11111011 y
b1 x
b1 o
b10 8"
0>
b10 5"
b10 2"
b10 /"
b10 a
19
#3560
09
#3570
b11 a
b11 /"
b11 2"
b11 5"
b11 8"
1>
b10 o
b10 x
b10 #"
b10 ,"
19
#3580
09
#3590
b11 ,"
b11 #"
b11 x
b11 o
b100 8"
b100 5"
b100 2"
1@
b100 /"
b100 a
19
#3600
09
#3610
b101 a
b101 /"
0A
b101 2"
b101 5"
b101 8"
b100 o
b100 x
b100 #"
b100 ,"
19
#3620
09
#3630
b101 ,"
b101 #"
b101 x
b101 o
b110 8"
b110 5"
0?
b110 2"
b110 /"
1A
b110 a
19
#3640
09
#3650
b111 a
b111 /"
b111 2"
0@
b111 5"
1?
b111 8"
0>
b110 o
b110 x
b110 #"
b110 ,"
19
#3660
09
#3670
b1011100 B
b1011100 ]
b1011100 6"
b11100 S
b100 T
b0 `
b10101010 J
b10101010 V
b10101010 d
b1011100 ^
b11110111 I
b11110111 R
b11110111 e
b10 U
b0 _
b111 ,"
b111 #"
b111 x
b111 o
b0 8"
b0 5"
b0 2"
b0 /"
1F
b1000 a
19
b10101010 7
b10101010 L
b10101010 b
b10101010 :"
b1001 8
b1001 M
b1001 c
b1001 9"
#3680
09
#3690
b1001 a
b1 /"
b1 2"
b1 5"
b1 8"
b1011100 7"
b0 o
b0 x
b0 #"
b0 ,"
19
#3700
09
#3710
b1 ,"
b11110 +"
b1 #"
b1 x
b1 o
b10 8"
1>
b10 5"
b10 2"
b10 /"
b1010 a
19
#3720
09
