miscelaneos/parallel_to_serial/simulation.vcd
$date
	Wed May  9 10:57:38 2018
$end
$version
	Icarus Verilog
$end
$timescale
	100ps
$end
$scope module testbench $end
$var wire 1 ! wRESET $end
$var wire 1 " Valid $end
$var wire 1 # DATA_OUT0 $end
$var wire 8 $ DATA_IN [7:0] $end
$var wire 1 % CLK $end
$scope module prob $end
$var reg 1 % CLK $end
$var reg 8 & DATA_IN [7:0] $end
$var reg 1 ! RESET $end
$var reg 1 " Valid $end
$upscope $end
$scope module uut_cond $end
$var wire 1 % CLK $end
$var wire 8 ' DATA_IN [7:0] $end
$var wire 1 ! RESET $end
$var wire 1 " Valid $end
$var reg 1 # DATA_OUT $end
$var reg 8 ( rBuffer [7:0] $end
$var reg 3 ) rCurrentState [2:0] $end
$var reg 3 * rNextState [2:0] $end
$upscope $end
$upscope $end
$enddefinitions $end
#0
$dumpvars
bx *
bx )
bx (
bx '
bx &
1%
bx $
x#
0"
0!
$end
#10
0%
#20
b0 *
1%
#30
0%
1!
#40
b0 )
1%
#50
0%
#60
1%
#70
0%
#80
1%
#90
0%
#100
1%
#110
0%
#120
1%
0!
#130
0%
#140
1%
#150
0%
#160
1%
#170
0%
#180
1%
#190
0%
#200
1%
#210
0%
#220
1%
#230
0%
#240
1%
#250
0%
#260
1%
#270
0%
#280
1%
b100101 $
b100101 &
b100101 '
#290
0%
#300
1%
#310
0%
#320
1%
#330
0%
#340
1%
#350
0%
#360
1%
#370
0%
#380
1%
#390
0%
#400
1%
#410
0%
#420
1%
#430
0%
#440
1%
1"
b101000 $
b101000 &
b101000 '
#450
b1 *
0#
b101000 (
0%
#460
b1 )
1%
#470
b10 *
0%
#480
b10 )
1%
#490
b11 *
0%
#500
b11 )
1%
#510
b100 *
1#
0%
#520
b100 )
1%
#530
b101 *
0#
0%
#540
b101 )
1%
#550
b110 *
1#
0%
#560
b110 )
1%
#570
b111 *
0#
0%
#580
b111 )
1%
#590
b0 *
0%
#600
b0 )
1%
b11111001 $
b11111001 &
b11111001 '
#610
b1 *
1#
b11111001 (
0%
#620
b1 )
1%
#630
b10 *
0#
0%
#640
b10 )
1%
#650
b11 *
0%
#660
b11 )
1%
#670
b100 *
1#
0%
#680
b100 )
1%
#690
b101 *
0%
#700
b101 )
1%
#710
b110 *
0%
#720
b110 )
1%
#730
b111 *
0%
#740
b111 )
1%
#750
b0 *
0%
#760
b0 )
1%
b1001111 $
b1001111 &
b1001111 '
#770
b1 *
b1001111 (
0%
#780
b1 )
1%
#790
b10 *
0%
#800
b10 )
1%
#810
b11 *
0%
#820
b11 )
1%
#830
b100 *
0%
#840
b100 )
1%
#850
b101 *
0#
0%
#860
b101 )
1%
#870
b110 *
0%
#880
b110 )
1%
#890
b111 *
1#
0%
#900
b111 )
1%
#910
b0 *
0#
0%
#920
b0 )
1%
b10100110 $
b10100110 &
b10100110 '
#930
b1 *
b10100110 (
0%
#940
b1 )
1%
#950
b10 *
1#
0%
#960
b10 )
1%
#970
b11 *
0%
#980
b11 )
1%
#990
b100 *
0#
0%
#1000
b100 )
1%
#1010
b101 *
0%
#1020
b101 )
1%
#1030
b110 *
1#
0%
#1040
b110 )
1%
#1050
b111 *
0#
0%
#1060
b111 )
1%
#1070
b0 *
1#
0%
#1080
b0 )
1%
b111001 $
b111001 &
b111001 '
#1090
b1 *
b111001 (
0%
#1100
b1 )
1%
#1110
b10 *
0#
0%
#1120
b10 )
1%
#1130
b11 *
0%
#1140
b11 )
1%
#1150
b100 *
1#
0%
#1160
b100 )
1%
#1170
b101 *
0%
#1180
b101 )
1%
#1190
b110 *
0%
#1200
b110 )
1%
#1210
b111 *
0#
0%
#1220
b111 )
1%
#1230
b0 *
0%
#1240
b0 )
1%
b10101000 $
b10101000 &
b10101000 '
#1250
b1 *
b10101000 (
0%
#1260
b1 )
1%
#1270
b10 *
0%
#1280
b10 )
1%
#1290
b11 *
0%
#1300
b11 )
1%
#1310
b100 *
1#
0%
#1320
b100 )
1%
#1330
b101 *
0#
0%
#1340
b101 )
1%
#1350
b110 *
1#
0%
#1360
b110 )
1%
#1370
b111 *
0#
0%
#1380
b111 )
1%
#1390
b0 *
1#
0%
#1400
b0 )
1%
b11111001 $
b11111001 &
b11111001 '
#1410
b1 *
b11111001 (
0%
#1420
b1 )
1%
#1430
b10 *
0#
0%
#1440
b10 )
1%
#1450
b11 *
0%
#1460
b11 )
1%
#1470
b100 *
1#
0%
#1480
b100 )
1%
#1490
b101 *
0%
#1500
b101 )
1%
#1510
b110 *
0%
#1520
b110 )
1%
#1530
b111 *
0%
#1540
b111 )
1%
#1550
b0 *
0%
#1560
b0 )
1%
b1001111 $
b1001111 &
b1001111 '
#1570
b1 *
b1001111 (
0%
#1580
b1 )
1%
#1590
b10 *
0%
#1600
b10 )
1%
#1610
b11 *
0%
#1620
b11 )
1%
#1630
b100 *
0%
#1640
b100 )
1%
#1650
b101 *
0#
0%
#1660
b101 )
1%
#1670
b110 *
0%
#1680
b110 )
1%
#1690
b111 *
1#
0%
#1700
b111 )
1%
#1710
b0 *
0#
0%
#1720
b0 )
1%
#1730
b1 *
1#
0%
#1740
b1 )
1%
#1750
b10 *
0%
#1760
b10 )
1%
#1770
b11 *
0%
#1780
b11 )
1%
#1790
b100 *
0%
#1800
b100 )
1%
#1810
b101 *
0#
0%
#1820
b101 )
1%
#1830
b110 *
0%
#1840
b110 )
1%
#1850
b111 *
1#
0%
#1860
b111 )
1%
#1870
b0 *
0#
0%
#1880
b0 )
1%
#1890
b1 *
1#
0%
#1900
b1 )
1%
#1910
b10 *
0%
#1920
b10 )
1%
#1930
b11 *
0%
#1940
b11 )
1%
#1950
b100 *
0%
#1960
b100 )
1%
#1970
b101 *
0#
0%
#1980
b101 )
1%
#1990
b110 *
0%
#2000
b110 )
1%
#2010
b111 *
1#
0%
#2020
b111 )
1%
#2030
b0 *
0#
0%
#2040
b0 )
1%
#2050
b1 *
1#
0%
#2060
b1 )
1%
#2070
b10 *
0%
#2080
b10 )
1%
#2090
b11 *
0%
#2100
b11 )
1%
#2110
b100 *
0%
#2120
b100 )
1%
#2130
b101 *
0#
0%
#2140
b101 )
1%
#2150
b110 *
0%
#2160
b110 )
1%
#2170
b111 *
1#
0%
#2180
b111 )
1%
#2190
b0 *
0#
0%
#2200
b0 )
1%
#2210
b1 *
1#
0%
#2220
b1 )
1%
#2230
b10 *
0%
#2240
b10 )
1%
#2250
b11 *
0%
#2260
b11 )
1%
#2270
b100 *
0%
#2280
b100 )
1%
#2290
b101 *
0#
0%
#2300
b101 )
1%
#2310
b110 *
0%
#2320
b110 )
1%
#2330
b111 *
1#
0%
#2340
b111 )
1%
#2350
b0 *
0#
0%
#2360
b0 )
1%
#2370
b1 *
1#
0%
#2380
b1 )
1%
#2390
b10 *
0%
#2400
b10 )
1%
#2410
b11 *
0%
#2420
b11 )
1%
#2430
b100 *
0%
#2440
b100 )
1%
#2450
b101 *
0#
0%
#2460
b101 )
1%
#2470
b110 *
0%
#2480
b110 )
1%
#2490
b111 *
1#
0%
#2500
b111 )
1%
#2510
b0 *
0#
0%
#2520
b0 )
1%
#2530
b1 *
1#
0%
#2540
b1 )
1%
#2550
b10 *
0%
#2560
b10 )
1%
#2570
b11 *
0%
#2580
b11 )
1%
#2590
b100 *
0%
#2600
b100 )
1%
#2610
b101 *
0#
0%
#2620
b101 )
1%
#2630
b110 *
0%
#2640
b110 )
1%
#2650
b111 *
1#
0%
#2660
b111 )
1%
#2670
b0 *
0#
0%
#2680
b0 )
1%
#2690
b1 *
1#
0%
#2700
b1 )
1%
#2710
b10 *
0%
#2720
b10 )
1%
#2730
b11 *
0%
#2740
b11 )
1%
#2750
b100 *
0%
#2760
b100 )
1%
#2770
b101 *
0#
0%
#2780
b101 )
1%
#2790
b110 *
0%
#2800
b110 )
1%
#2810
b111 *
1#
0%
#2820
b111 )
1%
#2830
b0 *
0#
0%
#2840
b0 )
1%
#2850
b1 *
1#
0%
#2860
b1 )
1%
#2870
b10 *
0%
#2880
b10 )
1%
#2890
b11 *
0%
#2900
b11 )
1%
#2910
b100 *
0%
#2920
b100 )
1%
#2930
b101 *
0#
0%
#2940
b101 )
1%
#2950
b110 *
0%
#2960
b110 )
1%
#2970
b111 *
1#
0%
#2980
b111 )
1%
#2990
b0 *
0#
0%
#3000
b0 )
1%
#3010
b1 *
1#
0%
#3020
b1 )
1%
#3030
b10 *
0%
#3040
b10 )
1%
#3050
b11 *
0%
#3060
b11 )
1%
#3070
b100 *
0%
#3080
b100 )
1%
#3090
b101 *
0#
0%
#3100
b101 )
1%
#3110
b110 *
0%
#3120
b110 )
1%
#3130
b111 *
1#
0%
#3140
b111 )
1%
#3150
b0 *
0#
0%
#3160
b0 )
1%
#3170
b1 *
1#
0%
#3180
b1 )
1%
#3190
b10 *
0%
#3200
b10 )
1%
#3210
b11 *
0%
#3220
b11 )
1%
#3230
b100 *
0%
#3240
b100 )
1%
#3250
b101 *
0#
0%
#3260
b101 )
1%
#3270
b110 *
0%
#3280
b110 )
1%
#3290
b111 *
1#
0%
#3300
b111 )
1%
#3310
b0 *
0#
0%
#3320
b0 )
1%
#3330
b1 *
1#
0%
#3340
b1 )
1%
#3350
b10 *
0%
#3360
b10 )
1%
#3370
b11 *
0%
#3380
b11 )
1%
#3390
b100 *
0%
#3400
b100 )
1%
#3410
b101 *
0#
0%
#3420
b101 )
1%
#3430
b110 *
0%
#3440
b110 )
1%
#3450
b111 *
1#
0%
#3460
b111 )
1%
#3470
b0 *
0#
0%
#3480
b0 )
1%
#3490
b1 *
1#
0%
#3500
b1 )
1%
#3510
b10 *
0%
#3520
b10 )
1%
#3530
b11 *
0%
#3540
b11 )
1%
#3550
b100 *
0%
#3560
b100 )
1%
#3570
b101 *
0#
0%
#3580
b101 )
1%
#3590
b110 *
0%
#3600
b110 )
1%
#3610
b111 *
1#
0%
#3620
b111 )
1%
#3630
b0 *
0#
0%
#3640
b0 )
1%
#3650
b1 *
1#
0%
#3660
b1 )
1%
#3670
b10 *
0%
#3680
b10 )
1%
#3690
b11 *
0%
#3700
b11 )
1%
#3710
b100 *
0%
#3720
b100 )
1%
#3730
b101 *
0#
0%
#3740
b101 )
1%
#3750
b110 *
0%
#3760
b110 )
1%
#3770
b111 *
1#
0%
#3780
b111 )
1%
#3790
b0 *
0#
0%
#3800
b0 )
1%
#3810
b1 *
1#
0%
#3820
b1 )
1%
#3830
b10 *
0%
#3840
b10 )
1%
#3850
b11 *
0%
#3860
b11 )
1%
#3870
b100 *
0%
#3880
b100 )
1%
#3890
b101 *
0#
0%
#3900
b101 )
1%
#3910
b110 *
0%
#3920
b110 )
1%
#3930
b111 *
1#
0%
#3940
b111 )
1%
#3950
b0 *
0#
0%
#3960
b0 )
1%
#3970
b1 *
1#
0%
#3980
b1 )
1%
#3990
b10 *
0%
#4000
b10 )
1%
#4010
b11 *
0%
#4020
b11 )
1%
#4030
b100 *
0%
#4040
b100 )
1%
#4050
b101 *
0#
0%
#4060
b101 )
1%
#4070
b110 *
0%
#4080
b110 )
1%
#4090
b111 *
1#
0%
#4100
b111 )
1%
#4110
b0 *
0#
0%
#4120
b0 )
1%
#4130
b1 *
1#
0%
#4140
b1 )
1%
#4150
b10 *
0%
#4160
b10 )
1%
#4170
b11 *
0%
#4180
b11 )
1%
#4190
b100 *
0%
#4200
b100 )
1%
#4210
b101 *
0#
0%
#4220
b101 )
1%
#4230
b110 *
0%
#4240
b110 )
1%
#4250
b111 *
1#
0%
#4260
b111 )
1%
#4270
b0 *
0#
0%
#4280
b0 )
1%
#4290
b1 *
1#
0%
#4300
b1 )
1%
#4310
b10 *
0%
#4320
b10 )
1%
#4330
b11 *
0%
#4340
b11 )
1%
#4350
b100 *
0%
#4360
b100 )
1%
#4370
b101 *
0#
0%
#4380
b101 )
1%
#4390
b110 *
0%
#4400
b110 )
1%
#4410
b111 *
1#
0%
#4420
b111 )
1%
#4430
b0 *
0#
0%
#4440
b0 )
1%
#4450
b1 *
1#
0%
#4460
b1 )
1%
#4470
b10 *
0%
#4480
b10 )
1%
#4490
b11 *
0%
#4500
b11 )
1%
#4510
b100 *
0%
#4520
b100 )
1%
#4530
b101 *
0#
0%
#4540
b101 )
1%
#4550
b110 *
0%
#4560
b110 )
1%
#4570
b111 *
1#
0%
#4580
b111 )
1%
#4590
b0 *
0#
0%
#4600
b0 )
1%
#4610
b1 *
1#
0%
#4620
b1 )
1%
#4630
b10 *
0%
#4640
b10 )
1%
#4650
b11 *
0%
#4660
b11 )
1%
#4670
b100 *
0%
#4680
b100 )
1%
#4690
b101 *
0#
0%
#4700
b101 )
1%
#4710
b110 *
0%
#4720
b110 )
1%
#4730
b111 *
1#
0%
#4740
b111 )
1%
#4750
b0 *
0#
0%
#4760
b0 )
1%
#4770
b1 *
1#
0%
#4780
b1 )
1%
#4790
b10 *
0%
#4800
b10 )
1%
#4810
b11 *
0%
#4820
b11 )
1%
#4830
b100 *
0%
#4840
b100 )
1%
#4850
b101 *
0#
0%
#4860
b101 )
1%
#4870
b110 *
0%
#4880
b110 )
1%
#4890
b111 *
1#
0%
#4900
b111 )
1%
#4910
b0 *
0#
0%
#4920
b0 )
1%
#4930
b1 *
1#
0%
#4940
b1 )
1%
#4950
b10 *
0%
#4960
b10 )
1%
#4970
b11 *
0%
#4980
b11 )
1%
#4990
b100 *
0%
#5000
b100 )
1%
#5010
b101 *
0#
0%
#5020
b101 )
1%
#5030
b110 *
0%
#5040
b110 )
1%
#5050
b111 *
1#
0%
#5060
b111 )
1%
#5070
b0 *
0#
0%
#5080
b0 )
1%
#5090
b1 *
1#
0%
#5100
b1 )
1%
#5110
b10 *
0%
#5120
b10 )
1%
#5130
b11 *
0%
#5140
b11 )
1%
#5150
b100 *
0%
#5160
b100 )
1%
#5170
b101 *
0#
0%
#5180
b101 )
1%
#5190
b110 *
0%
#5200
b110 )
1%
#5210
b111 *
1#
0%
#5220
b111 )
1%
#5230
b0 *
0#
0%
#5240
b0 )
1%
#5250
b1 *
1#
0%
#5260
b1 )
1%
#5270
b10 *
0%
#5280
b10 )
1%
#5290
b11 *
0%
#5300
b11 )
1%
#5310
b100 *
0%
#5320
b100 )
1%
#5330
b101 *
0#
0%
#5340
b101 )
1%
#5350
b110 *
0%
#5360
b110 )
1%
#5370
b111 *
1#
0%
#5380
b111 )
1%
#5390
b0 *
0#
0%
#5400
b0 )
1%
#5410
b1 *
1#
0%
#5420
b1 )
1%
#5430
b10 *
0%
#5440
b10 )
1%
#5450
b11 *
0%
#5460
b11 )
1%
#5470
b100 *
0%
#5480
b100 )
1%
#5490
b101 *
0#
0%
#5500
b101 )
1%
#5510
b110 *
0%
#5520
b110 )
1%
#5530
b111 *
1#
0%
#5540
b111 )
1%
#5550
b0 *
0#
0%
#5560
b0 )
1%
#5570
b1 *
1#
0%
#5580
b1 )
1%
#5590
b10 *
0%
#5600
b10 )
1%
#5610
b11 *
0%
#5620
b11 )
1%
#5630
b100 *
0%
#5640
b100 )
1%
#5650
b101 *
0#
0%
#5660
b101 )
1%
#5670
b110 *
0%
#5680
b110 )
1%
#5690
b111 *
1#
0%
#5700
b111 )
1%
#5710
b0 *
0#
0%
#5720
b0 )
1%
#5730
b1 *
1#
0%
#5740
b1 )
1%
#5750
b10 *
0%
#5760
b10 )
1%
#5770
b11 *
0%
#5780
b11 )
1%
#5790
b100 *
0%
#5800
b100 )
1%
#5810
b101 *
0#
0%
#5820
b101 )
1%
#5830
b110 *
0%
#5840
b110 )
1%
#5850
b111 *
1#
0%
#5860
b111 )
1%
#5870
b0 *
0#
0%
#5880
b0 )
1%
#5890
b1 *
1#
0%
#5900
b1 )
1%
#5910
b10 *
0%
#5920
b10 )
1%
#5930
b11 *
0%
#5940
b11 )
1%
#5950
b100 *
0%
#5960
b100 )
1%
#5970
b101 *
0#
0%
#5980
b101 )
1%
#5990
b110 *
0%
#6000
b110 )
1%
#6010
b111 *
1#
0%
#6020
b111 )
1%
#6030
b0 *
0#
0%
#6040
b0 )
1%
#6050
b1 *
1#
0%
#6060
b1 )
1%
#6070
b10 *
0%
#6080
b10 )
1%
#6090
b11 *
0%
#6100
b11 )
1%
#6110
b100 *
0%
#6120
b100 )
1%
#6130
b101 *
0#
0%
#6140
b101 )
1%
#6150
b110 *
0%
#6160
b110 )
1%
#6170
b111 *
1#
0%
#6180
b111 )
1%
#6190
b0 *
0#
0%
#6200
b0 )
1%
#6210
b1 *
1#
0%
#6220
b1 )
1%
#6230
b10 *
0%
#6240
b10 )
1%
#6250
b11 *
0%
#6260
b11 )
1%
#6270
b100 *
0%
#6280
b100 )
1%
#6290
b101 *
0#
0%
#6300
b101 )
1%
#6310
b110 *
0%
#6320
b110 )
1%
#6330
b111 *
1#
0%
#6340
b111 )
1%
#6350
b0 *
0#
0%
#6360
b0 )
1%
#6370
b1 *
1#
0%
#6380
b1 )
1%
#6390
b10 *
0%
#6400
b10 )
1%
#6410
b11 *
0%
#6420
b11 )
1%
#6430
b100 *
0%
#6440
b100 )
1%
#6450
b101 *
0#
0%
#6460
b101 )
1%
#6470
b110 *
0%
#6480
b110 )
1%
#6490
b111 *
1#
0%
#6500
b111 )
1%
#6510
b0 *
0#
0%
#6520
b0 )
1%
#6530
b1 *
1#
0%
#6540
b1 )
1%
#6550
b10 *
0%
#6560
b10 )
1%
#6570
b11 *
0%
#6580
b11 )
1%
#6590
b100 *
0%
#6600
b100 )
1%
#6610
b101 *
0#
0%
#6620
b101 )
1%
#6630
b110 *
0%
#6640
b110 )
1%
#6650
b111 *
1#
0%
#6660
b111 )
1%
#6670
b0 *
0#
0%
#6680
b0 )
1%
#6690
b1 *
1#
0%
#6700
b1 )
1%
#6710
b10 *
0%
#6720
b10 )
1%
#6730
b11 *
0%
#6740
b11 )
1%
#6750
b100 *
0%
#6760
b100 )
1%
#6770
b101 *
0#
0%
#6780
b101 )
1%
#6790
b110 *
0%
#6800
b110 )
1%
#6810
b111 *
1#
0%
#6820
b111 )
1%
#6830
b0 *
0#
0%
#6840
b0 )
1%
#6850
b1 *
1#
0%
#6860
b1 )
1%
#6870
b10 *
0%
#6880
b10 )
1%
#6890
b11 *
0%
#6900
b11 )
1%
#6910
b100 *
0%
#6920
b100 )
1%
#6930
b101 *
0#
0%
#6940
b101 )
1%
#6950
b110 *
0%
#6960
b110 )
1%
#6970
b111 *
1#
0%
#6980
b111 )
1%
#6990
b0 *
0#
0%
#7000
b0 )
1%
#7010
b1 *
1#
0%
#7020
b1 )
1%
#7030
b10 *
0%
#7040
b10 )
1%
#7050
b11 *
0%
#7060
b11 )
1%
#7070
b100 *
0%
#7080
b100 )
1%
#7090
b101 *
0#
0%
#7100
b101 )
1%
#7110
b110 *
0%
#7120
b110 )
1%
#7130
b111 *
1#
0%
#7140
b111 )
1%
#7150
b0 *
0#
0%
#7160
b0 )
1%
#7170
b1 *
1#
0%
#7180
b1 )
1%
#7190
b10 *
0%
#7200
b10 )
1%
#7210
b11 *
0%
#7220
b11 )
1%
#7230
b100 *
0%
#7240
b100 )
1%
#7250
b101 *
0#
0%
#7260
b101 )
1%
#7270
b110 *
0%
#7280
b110 )
1%
#7290
b111 *
1#
0%
#7300
b111 )
1%
#7310
b0 *
0#
0%
#7320
b0 )
1%
#7330
b1 *
1#
0%
#7340
b1 )
1%
#7350
b10 *
0%
#7360
b10 )
1%
#7370
b11 *
0%
#7380
b11 )
1%
#7390
b100 *
0%
#7400
b100 )
1%
#7410
b101 *
0#
0%
#7420
b101 )
1%
#7430
b110 *
0%
#7440
b110 )
1%
#7450
b111 *
1#
0%
#7460
b111 )
1%
#7470
b0 *
0#
0%
#7480
b0 )
1%
#7490
b1 *
1#
0%
#7500
b1 )
1%
#7510
b10 *
0%
#7520
b10 )
1%
#7530
b11 *
0%
#7540
b11 )
1%
#7550
b100 *
0%
#7560
b100 )
1%
#7570
b101 *
0#
0%
#7580
b101 )
1%
#7590
b110 *
0%
#7600
b110 )
1%
#7610
b111 *
1#
0%
#7620
b111 )
1%
#7630
b0 *
0#
0%
#7640
b0 )
1%
#7650
b1 *
1#
0%
#7660
b1 )
1%
#7670
b10 *
0%
#7680
b10 )
1%
#7690
b11 *
0%
#7700
b11 )
1%
#7710
b100 *
0%
#7720
b100 )
1%
#7730
b101 *
0#
0%
#7740
b101 )
1%
#7750
b110 *
0%
#7760
b110 )
1%
#7770
b111 *
1#
0%
#7780
b111 )
1%
#7790
b0 *
0#
0%
#7800
b0 )
1%
#7810
b1 *
1#
0%
#7820
b1 )
1%
#7830
b10 *
0%
#7840
b10 )
1%
#7850
b11 *
0%
#7860
b11 )
1%
#7870
b100 *
0%
#7880
b100 )
1%
#7890
b101 *
0#
0%
#7900
b101 )
1%
#7910
b110 *
0%
#7920
b110 )
1%
#7930
b111 *
1#
0%
#7940
b111 )
1%
#7950
b0 *
0#
0%
#7960
b0 )
1%
#7970
b1 *
1#
0%
#7980
b1 )
1%
#7990
b10 *
0%
#8000
b10 )
1%
#8010
b11 *
0%
#8020
b11 )
1%
#8030
b100 *
0%
#8040
b100 )
1%
#8050
b101 *
0#
0%
#8060
b101 )
1%
#8070
b110 *
0%
#8080
b110 )
1%
#8090
b111 *
1#
0%
#8100
b111 )
1%
#8110
b0 *
0#
0%
#8120
b0 )
1%
#8130
b1 *
1#
0%
#8140
b1 )
1%
#8150
b10 *
0%
#8160
b10 )
1%
#8170
b11 *
0%
#8180
b11 )
1%
#8190
b100 *
0%
#8200
b100 )
1%
#8210
b101 *
0#
0%
#8220
b101 )
1%
#8230
b110 *
0%
#8240
b110 )
1%
#8250
b111 *
1#
0%
#8260
b111 )
1%
#8270
b0 *
0#
0%
#8280
b0 )
1%
#8290
b1 *
1#
0%
#8300
b1 )
1%
#8310
b10 *
0%
#8320
b10 )
1%
#8330
b11 *
0%
#8340
b11 )
1%
#8350
b100 *
0%
#8360
b100 )
1%
#8370
b101 *
0#
0%
#8380
b101 )
1%
#8390
b110 *
0%
#8400
b110 )
1%
#8410
b111 *
1#
0%
#8420
b111 )
1%
#8430
b0 *
0#
0%
#8440
b0 )
1%
#8450
b1 *
1#
0%
#8460
b1 )
1%
#8470
b10 *
0%
#8480
b10 )
1%
#8490
b11 *
0%
#8500
b11 )
1%
#8510
b100 *
0%
#8520
b100 )
1%
#8530
b101 *
0#
0%
#8540
b101 )
1%
#8550
b110 *
0%
#8560
b110 )
1%
#8570
b111 *
1#
0%
#8580
b111 )
1%
#8590
b0 *
0#
0%
#8600
b0 )
1%
#8610
b1 *
1#
0%
#8620
b1 )
1%
#8630
b10 *
0%
#8640
b10 )
1%
#8650
b11 *
0%
#8660
b11 )
1%
#8670
b100 *
0%
#8680
b100 )
1%
#8690
b101 *
0#
0%
#8700
b101 )
1%
#8710
b110 *
0%
#8720
b110 )
1%
#8730
b111 *
1#
0%
#8740
b111 )
1%
#8750
b0 *
0#
0%
#8760
b0 )
1%
#8770
b1 *
1#
0%
#8780
b1 )
1%
#8790
b10 *
0%
#8800
b10 )
1%
#8810
b11 *
0%
#8820
b11 )
1%
#8830
b100 *
0%
#8840
b100 )
1%
#8850
b101 *
0#
0%
#8860
b101 )
1%
#8870
b110 *
0%
#8880
b110 )
1%
#8890
b111 *
1#
0%
#8900
b111 )
1%
#8910
b0 *
0#
0%
#8920
b0 )
1%
#8930
b1 *
1#
0%
#8940
b1 )
1%
#8950
b10 *
0%
#8960
b10 )
1%
#8970
b11 *
0%
#8980
b11 )
1%
#8990
b100 *
0%
#9000
b100 )
1%
#9010
b101 *
0#
0%
#9020
b101 )
1%
#9030
b110 *
0%
#9040
b110 )
1%
#9050
b111 *
1#
0%
#9060
b111 )
1%
#9070
b0 *
0#
0%
#9080
b0 )
1%
#9090
b1 *
1#
0%
#9100
b1 )
1%
#9110
b10 *
0%
#9120
b10 )
1%
#9130
b11 *
0%
#9140
b11 )
1%
#9150
b100 *
0%
#9160
b100 )
1%
#9170
b101 *
0#
0%
#9180
b101 )
1%
#9190
b110 *
0%
#9200
b110 )
1%
#9210
b111 *
1#
0%
#9220
b111 )
1%
#9230
b0 *
0#
0%
#9240
b0 )
1%
#9250
b1 *
1#
0%
#9260
b1 )
1%
#9270
b10 *
0%
#9280
b10 )
1%
#9290
b11 *
0%
#9300
b11 )
1%
#9310
b100 *
0%
#9320
b100 )
1%
#9330
b101 *
0#
0%
#9340
b101 )
1%
#9350
b110 *
0%
#9360
b110 )
1%
#9370
b111 *
1#
0%
#9380
b111 )
1%
#9390
b0 *
0#
0%
#9400
b0 )
1%
#9410
b1 *
1#
0%
#9420
b1 )
1%
#9430
b10 *
0%
#9440
b10 )
1%
#9450
b11 *
0%
#9460
b11 )
1%
#9470
b100 *
0%
#9480
b100 )
1%
#9490
b101 *
0#
0%
#9500
b101 )
1%
#9510
b110 *
0%
#9520
b110 )
1%
#9530
b111 *
1#
0%
#9540
b111 )
1%
#9550
b0 *
0#
0%
#9560
b0 )
1%
#9570
b1 *
1#
0%
#9580
b1 )
1%
#9590
b10 *
0%
#9600
b10 )
1%
#9610
b11 *
0%
#9620
b11 )
1%
#9630
b100 *
0%
#9640
b100 )
1%
#9650
b101 *
0#
0%
#9660
b101 )
1%
#9670
b110 *
0%
#9680
b110 )
1%
#9690
b111 *
1#
0%
#9700
b111 )
1%
#9710
b0 *
0#
0%
#9720
b0 )
1%
#9730
b1 *
1#
0%
#9740
b1 )
1%
#9750
b10 *
0%
#9760
b10 )
1%
#9770
b11 *
0%
#9780
b11 )
1%
#9790
b100 *
0%
#9800
b100 )
1%
#9810
b101 *
0#
0%
#9820
b101 )
1%
#9830
b110 *
0%
#9840
b110 )
1%
#9850
b111 *
1#
0%
#9860
b111 )
1%
#9870
b0 *
0#
0%
#9880
b0 )
1%
#9890
b1 *
1#
0%
#9900
b1 )
1%
#9910
b10 *
0%
#9920
b10 )
1%
#9930
b11 *
0%
#9940
b11 )
1%
#9950
b100 *
0%
#9960
b100 )
1%
#9970
b101 *
0#
0%
#9980
b101 )
1%
#9990
b110 *
0%
#10000
b110 )
1%
